{
 "custom_fields": [
  {
   "_assign": null,
   "_comments": null,
   "_liked_by": null,
   "_user_tags": null,
   "allow_in_quick_entry": 0,
   "allow_on_submit": 0,
   "bold": 0,
   "collapsible": 0,
   "collapsible_depends_on": null,
   "columns": 0,
   "creation": "2021-03-24 07:07:32.906053",
   "default": null,
   "depends_on": null,
   "description": null,
   "docstatus": 0,
   "dt": "Customer",
   "fetch_from": null,
   "fetch_if_empty": 0,
   "fieldname": "salesforce_id",
   "fieldtype": "Data",
   "hidden": 1,
   "hide_border": 0,
   "hide_days": 0,
   "hide_seconds": 0,
   "idx": 79,
   "ignore_user_permissions": 0,
   "ignore_xss_filter": 0,
   "in_global_search": 0,
   "in_list_view": 0,
   "in_preview": 0,
   "in_standard_filter": 0,
   "insert_after": "customer_pos_id",
   "label": "salesforce_id",
   "length": 0,
   "mandatory_depends_on": null,
   "modified": "2018-12-17 12:22:04.017488",
   "modified_by": "Administrator",
   "name": "Customer-salesforce_id",
   "no_copy": 0,
   "non_negative": 0,
   "options": null,
   "owner": "Administrator",
   "parent": null,
   "parentfield": null,
   "parenttype": null,
   "permlevel": 0,
   "precision": "",
   "print_hide": 0,
   "print_hide_if_no_value": 0,
   "print_width": null,
   "read_only": 0,
   "read_only_depends_on": null,
   "report_hide": 0,
   "reqd": 0,
   "search_index": 0,
   "translatable": 1,
   "unique": 0,
   "width": null
  },
  {
   "_assign": null,
   "_comments": null,
   "_liked_by": null,
   "_user_tags": null,
   "allow_in_quick_entry": 0,
   "allow_on_submit": 0,
   "bold": 0,
   "collapsible": 0,
   "collapsible_depends_on": null,
   "columns": 0,
   "creation": "2022-09-02 11:16:20.952386",
   "default": null,
   "depends_on": null,
   "description": null,
   "docstatus": 0,
   "dt": "Customer",
   "fetch_from": null,
   "fetch_if_empty": 0,
   "fieldname": "busniess_type",
   "fieldtype": "Select",
   "hidden": 0,
   "hide_border": 0,
   "hide_days": 0,
   "hide_seconds": 0,
   "idx": 14,
   "ignore_user_permissions": 0,
   "ignore_xss_filter": 0,
   "in_global_search": 0,
   "in_list_view": 0,
   "in_preview": 0,
   "in_standard_filter": 0,
   "insert_after": "lead_name",
   "label": "Busniess Type",
   "length": 0,
   "mandatory_depends_on": null,
   "modified": "2018-12-25 14:55:23.731876",
   "modified_by": "Administrator",
   "name": "Customer-busniess_type",
   "no_copy": 0,
   "non_negative": 0,
   "options": "\nPanel Builder\nManufacturer\nTrader\nContractor\nBuilder\nMES Contr\nOEM\nInfra Contr\nPanel\nEnd User",
   "owner": "Administrator",
   "parent": null,
   "parentfield": null,
   "parenttype": null,
   "permlevel": 0,
   "precision": "",
   "print_hide": 0,
   "print_hide_if_no_value": 0,
   "print_width": null,
   "read_only": 0,
   "read_only_depends_on": null,
   "report_hide": 0,
   "reqd": 1,
   "search_index": 0,
   "translatable": 1,
   "unique": 0,
   "width": null
  },
  {
   "_assign": null,
   "_comments": null,
   "_liked_by": null,
   "_user_tags": null,
   "allow_in_quick_entry": 0,
   "allow_on_submit": 0,
   "bold": 0,
   "collapsible": 0,
   "collapsible_depends_on": null,
   "columns": 0,
   "creation": "2022-09-02 11:16:28.545606",
   "default": null,
   "depends_on": null,
   "description": null,
   "docstatus": 0,
   "dt": "Customer",
   "fetch_from": null,
   "fetch_if_empty": 0,
   "fieldname": "bank_details",
   "fieldtype": "Section Break",
   "hidden": 0,
   "hide_border": 0,
   "hide_days": 0,
   "hide_seconds": 0,
   "idx": 28,
   "ignore_user_permissions": 0,
   "ignore_xss_filter": 0,
   "in_global_search": 0,
   "in_list_view": 0,
   "in_preview": 0,
   "in_standard_filter": 0,
   "insert_after": "disabled",
   "label": "Bank Details",
   "length": 0,
   "mandatory_depends_on": null,
   "modified": "2018-12-25 15:01:47.168755",
   "modified_by": "Administrator",
   "name": "Customer-bank_details",
   "no_copy": 0,
   "non_negative": 0,
   "options": null,
   "owner": "Administrator",
   "parent": null,
   "parentfield": null,
   "parenttype": null,
   "permlevel": 0,
   "precision": "",
   "print_hide": 0,
   "print_hide_if_no_value": 0,
   "print_width": null,
   "read_only": 0,
   "read_only_depends_on": null,
   "report_hide": 0,
   "reqd": 0,
   "search_index": 0,
   "translatable": 0,
   "unique": 0,
   "width": null
  },
  {
   "_assign": null,
   "_comments": null,
   "_liked_by": null,
   "_user_tags": null,
   "allow_in_quick_entry": 0,
   "allow_on_submit": 0,
   "bold": 0,
   "collapsible": 0,
   "collapsible_depends_on": null,
   "columns": 0,
   "creation": "2022-09-02 11:16:30.263349",
   "default": null,
   "depends_on": null,
   "description": null,
   "docstatus": 0,
   "dt": "Customer",
   "fetch_from": null,
   "fetch_if_empty": 0,
   "fieldname": "bank_account_no",
   "fieldtype": "Data",
   "hidden": 0,
   "hide_border": 0,
   "hide_days": 0,
   "hide_seconds": 0,
   "idx": 29,
   "ignore_user_permissions": 0,
   "ignore_xss_filter": 0,
   "in_global_search": 0,
   "in_list_view": 0,
   "in_preview": 0,
   "in_standard_filter": 0,
   "insert_after": "bank_details",
   "label": "Bank Account No",
   "length": 0,
   "mandatory_depends_on": null,
   "modified": "2018-12-25 15:04:46.735294",
   "modified_by": "Administrator",
   "name": "Customer-bank_account_no",
   "no_copy": 0,
   "non_negative": 0,
   "options": null,
   "owner": "Administrator",
   "parent": null,
   "parentfield": null,
   "parenttype": null,
   "permlevel": 0,
   "precision": "",
   "print_hide": 0,
   "print_hide_if_no_value": 0,
   "print_width": null,
   "read_only": 0,
   "read_only_depends_on": null,
   "report_hide": 0,
   "reqd": 0,
   "search_index": 0,
   "translatable": 1,
   "unique": 0,
   "width": null
  },
  {
   "_assign": null,
   "_comments": null,
   "_liked_by": null,
   "_user_tags": null,
   "allow_in_quick_entry": 0,
   "allow_on_submit": 0,
   "bold": 0,
   "collapsible": 0,
   "collapsible_depends_on": null,
   "columns": 0,
   "creation": "2022-09-02 11:16:31.951890",
   "default": null,
   "depends_on": null,
   "description": null,
   "docstatus": 0,
   "dt": "Customer",
   "fetch_from": null,
   "fetch_if_empty": 0,
   "fieldname": "bank_name",
   "fieldtype": "Data",
   "hidden": 0,
   "hide_border": 0,
   "hide_days": 0,
   "hide_seconds": 0,
   "idx": 30,
   "ignore_user_permissions": 0,
   "ignore_xss_filter": 0,
   "in_global_search": 0,
   "in_list_view": 0,
   "in_preview": 0,
   "in_standard_filter": 0,
   "insert_after": "bank_account_no",
   "label": "Bank Name",
   "length": 0,
   "mandatory_depends_on": null,
   "modified": "2018-12-25 15:16:12.419424",
   "modified_by": "Administrator",
   "name": "Customer-bank_name",
   "no_copy": 0,
   "non_negative": 0,
   "options": null,
   "owner": "Administrator",
   "parent": null,
   "parentfield": null,
   "parenttype": null,
   "permlevel": 0,
   "precision": "",
   "print_hide": 0,
   "print_hide_if_no_value": 0,
   "print_width": null,
   "read_only": 0,
   "read_only_depends_on": null,
   "report_hide": 0,
   "reqd": 0,
   "search_index": 0,
   "translatable": 1,
   "unique": 0,
   "width": null
  },
  {
   "_assign": null,
   "_comments": null,
   "_liked_by": null,
   "_user_tags": null,
   "allow_in_quick_entry": 0,
   "allow_on_submit": 0,
   "bold": 0,
   "collapsible": 0,
   "collapsible_depends_on": null,
   "columns": 0,
   "creation": "2022-09-02 11:16:32.307358",
   "default": null,
   "depends_on": null,
   "description": null,
   "docstatus": 0,
   "dt": "Customer",
   "fetch_from": null,
   "fetch_if_empty": 0,
   "fieldname": "branch",
   "fieldtype": "Data",
   "hidden": 0,
   "hide_border": 0,
   "hide_days": 0,
   "hide_seconds": 0,
   "idx": 31,
   "ignore_user_permissions": 0,
   "ignore_xss_filter": 0,
   "in_global_search": 0,
   "in_list_view": 0,
   "in_preview": 0,
   "in_standard_filter": 0,
   "insert_after": "bank_name",
   "label": "Branch",
   "length": 0,
   "mandatory_depends_on": null,
   "modified": "2018-12-25 15:16:12.732462",
   "modified_by": "Administrator",
   "name": "Customer-branch",
   "no_copy": 0,
   "non_negative": 0,
   "options": null,
   "owner": "Administrator",
   "parent": null,
   "parentfield": null,
   "parenttype": null,
   "permlevel": 0,
   "precision": "",
   "print_hide": 0,
   "print_hide_if_no_value": 0,
   "print_width": null,
   "read_only": 0,
   "read_only_depends_on": null,
   "report_hide": 0,
   "reqd": 0,
   "search_index": 0,
   "translatable": 1,
   "unique": 0,
   "width": null
  },
  {
   "_assign": null,
   "_comments": null,
   "_liked_by": null,
   "_user_tags": null,
   "allow_in_quick_entry": 0,
   "allow_on_submit": 0,
   "bold": 0,
   "collapsible": 0,
   "collapsible_depends_on": null,
   "columns": 0,
   "creation": "2022-09-02 11:16:32.913280",
   "default": null,
   "depends_on": null,
   "description": null,
   "docstatus": 0,
   "dt": "Customer",
   "fetch_from": null,
   "fetch_if_empty": 0,
   "fieldname": "ifsc_code",
   "fieldtype": "Data",
   "hidden": 0,
   "hide_border": 0,
   "hide_days": 0,
   "hide_seconds": 0,
   "idx": 32,
   "ignore_user_permissions": 0,
   "ignore_xss_filter": 0,
   "in_global_search": 0,
   "in_list_view": 0,
   "in_preview": 0,
   "in_standard_filter": 0,
   "insert_after": "branch",
   "label": "IFSC CODE",
   "length": 0,
   "mandatory_depends_on": null,
   "modified": "2018-12-25 15:16:13.015686",
   "modified_by": "Administrator",
   "name": "Customer-ifsc_code",
   "no_copy": 0,
   "non_negative": 0,
   "options": null,
   "owner": "Administrator",
   "parent": null,
   "parentfield": null,
   "parenttype": null,
   "permlevel": 0,
   "precision": "",
   "print_hide": 0,
   "print_hide_if_no_value": 0,
   "print_width": null,
   "read_only": 0,
   "read_only_depends_on": null,
   "report_hide": 0,
   "reqd": 0,
   "search_index": 0,
   "translatable": 1,
   "unique": 0,
   "width": null
  },
  {
   "_assign": null,
   "_comments": null,
   "_liked_by": null,
   "_user_tags": null,
   "allow_in_quick_entry": 0,
   "allow_on_submit": 0,
   "bold": 0,
   "collapsible": 0,
   "collapsible_depends_on": null,
   "columns": 0,
   "creation": "2022-09-02 11:16:34.187520",
   "default": null,
   "depends_on": null,
   "description": null,
   "docstatus": 0,
   "dt": "Customer",
   "fetch_from": null,
   "fetch_if_empty": 0,
   "fieldname": "pan_number",
   "fieldtype": "Data",
   "hidden": 0,
   "hide_border": 0,
   "hide_days": 0,
   "hide_seconds": 0,
   "idx": 34,
   "ignore_user_permissions": 0,
   "ignore_xss_filter": 0,
   "in_global_search": 0,
   "in_list_view": 0,
   "in_preview": 0,
   "in_standard_filter": 0,
   "insert_after": "column_break_19",
   "label": "PAN NUMBER",
   "length": 0,
   "mandatory_depends_on": null,
   "modified": "2018-12-25 15:17:13.322868",
   "modified_by": "Administrator",
   "name": "Customer-pan_number",
   "no_copy": 0,
   "non_negative": 0,
   "options": null,
   "owner": "Administrator",
   "parent": null,
   "parentfield": null,
   "parenttype": null,
   "permlevel": 0,
   "precision": "",
   "print_hide": 0,
   "print_hide_if_no_value": 0,
   "print_width": null,
   "read_only": 0,
   "read_only_depends_on": null,
   "report_hide": 0,
   "reqd": 0,
   "search_index": 0,
   "translatable": 1,
   "unique": 0,
   "width": null
  },
  {
   "_assign": null,
   "_comments": null,
   "_liked_by": null,
   "_user_tags": null,
   "allow_in_quick_entry": 0,
   "allow_on_submit": 0,
   "bold": 0,
   "collapsible": 0,
   "collapsible_depends_on": null,
   "columns": 0,
   "creation": "2022-09-02 11:16:34.459289",
   "default": null,
   "depends_on": null,
   "description": null,
   "docstatus": 0,
   "dt": "Customer",
   "fetch_from": null,
   "fetch_if_empty": 0,
   "fieldname": "aadhar_card_no_",
   "fieldtype": "Data",
   "hidden": 0,
   "hide_border": 0,
   "hide_days": 0,
   "hide_seconds": 0,
   "idx": 35,
   "ignore_user_permissions": 0,
   "ignore_xss_filter": 0,
   "in_global_search": 0,
   "in_list_view": 0,
   "in_preview": 0,
   "in_standard_filter": 0,
   "insert_after": "pan_number",
   "label": "AADHAR CARD NO ",
   "length": 0,
   "mandatory_depends_on": null,
   "modified": "2018-12-25 15:17:13.668959",
   "modified_by": "Administrator",
   "name": "Customer-aadhar_card_no_",
   "no_copy": 0,
   "non_negative": 0,
   "options": null,
   "owner": "Administrator",
   "parent": null,
   "parentfield": null,
   "parenttype": null,
   "permlevel": 0,
   "precision": "",
   "print_hide": 0,
   "print_hide_if_no_value": 0,
   "print_width": null,
   "read_only": 0,
   "read_only_depends_on": null,
   "report_hide": 0,
   "reqd": 0,
   "search_index": 0,
   "translatable": 1,
   "unique": 0,
   "width": null
  },
  {
   "_assign": null,
   "_comments": null,
   "_liked_by": null,
   "_user_tags": null,
   "allow_in_quick_entry": 0,
   "allow_on_submit": 0,
   "bold": 0,
   "collapsible": 0,
   "collapsible_depends_on": null,
   "columns": 0,
   "creation": "2022-09-02 11:16:34.841595",
   "default": null,
   "depends_on": null,
   "description": null,
   "docstatus": 0,
   "dt": "Customer",
   "fetch_from": null,
   "fetch_if_empty": 0,
   "fieldname": "last_four_years_turnover",
   "fieldtype": "Data",
   "hidden": 0,
   "hide_border": 0,
   "hide_days": 0,
   "hide_seconds": 0,
   "idx": 36,
   "ignore_user_permissions": 0,
   "ignore_xss_filter": 0,
   "in_global_search": 0,
   "in_list_view": 0,
   "in_preview": 0,
   "in_standard_filter": 0,
   "insert_after": "aadhar_card_no_",
   "label": "Last four Years turnover",
   "length": 0,
   "mandatory_depends_on": null,
   "modified": "2018-12-25 15:17:13.955216",
   "modified_by": "Administrator",
   "name": "Customer-last_four_years_turnover",
   "no_copy": 0,
   "non_negative": 0,
   "options": null,
   "owner": "Administrator",
   "parent": null,
   "parentfield": null,
   "parenttype": null,
   "permlevel": 0,
   "precision": "",
   "print_hide": 0,
   "print_hide_if_no_value": 0,
   "print_width": null,
   "read_only": 0,
   "read_only_depends_on": null,
   "report_hide": 0,
   "reqd": 0,
   "search_index": 0,
   "translatable": 1,
   "unique": 0,
   "width": null
  },
  {
   "_assign": null,
   "_comments": null,
   "_liked_by": null,
   "_user_tags": null,
   "allow_in_quick_entry": 0,
   "allow_on_submit": 0,
   "bold": 0,
   "collapsible": 0,
   "collapsible_depends_on": null,
   "columns": 0,
   "creation": "2022-09-02 11:16:33.862045",
   "default": null,
   "depends_on": null,
   "description": null,
   "docstatus": 0,
   "dt": "Customer",
   "fetch_from": null,
   "fetch_if_empty": 0,
   "fieldname": "column_break_19",
   "fieldtype": "Column Break",
   "hidden": 0,
   "hide_border": 0,
   "hide_days": 0,
   "hide_seconds": 0,
   "idx": 33,
   "ignore_user_permissions": 0,
   "ignore_xss_filter": 0,
   "in_global_search": 0,
   "in_list_view": 0,
   "in_preview": 0,
   "in_standard_filter": 0,
   "insert_after": "ifsc_code",
   "label": null,
   "length": 0,
   "mandatory_depends_on": null,
   "modified": "2018-12-25 15:17:45.662695",
   "modified_by": "Administrator",
   "name": "Customer-column_break_19",
   "no_copy": 0,
   "non_negative": 0,
   "options": null,
   "owner": "Administrator",
   "parent": null,
   "parentfield": null,
   "parenttype": null,
   "permlevel": 0,
   "precision": "",
   "print_hide": 0,
   "print_hide_if_no_value": 0,
   "print_width": null,
   "read_only": 0,
   "read_only_depends_on": null,
   "report_hide": 0,
   "reqd": 0,
   "search_index": 0,
   "translatable": 0,
   "unique": 0,
   "width": null
  },
  {
   "_assign": null,
   "_comments": null,
   "_liked_by": null,
   "_user_tags": null,
   "allow_in_quick_entry": 0,
   "allow_on_submit": 0,
   "bold": 0,
   "collapsible": 0,
   "collapsible_depends_on": null,
   "columns": 0,
   "creation": "2020-03-21 12:51:16.386098",
   "default": "Registered Regular",
   "depends_on": null,
   "description": null,
   "docstatus": 0,
   "dt": "Customer",
   "fetch_from": null,
   "fetch_if_empty": 0,
   "fieldname": "gst_category",
   "fieldtype": "Select",
   "hidden": 0,
   "hide_border": 0,
   "hide_days": 0,
   "hide_seconds": 0,
   "idx": 7,
   "ignore_user_permissions": 0,
   "ignore_xss_filter": 0,
   "in_global_search": 0,
   "in_list_view": 0,
   "in_preview": 0,
   "in_standard_filter": 0,
   "insert_after": "customer_type",
   "label": "GST Category",
   "length": 0,
   "mandatory_depends_on": null,
   "modified": "2020-03-21 14:47:22.159840",
   "modified_by": "Administrator",
   "name": "Customer-gst_category",
   "no_copy": 0,
   "non_negative": 0,
   "options": "Registered Regular\nRegistered Composition\nUnregistered\nSEZ\nOverseas\nConsumer\nDeemed Export\nUIN Holders",
   "owner": "Administrator",
   "parent": null,
   "parentfield": null,
   "parenttype": null,
   "permlevel": 0,
   "precision": "",
   "print_hide": 0,
   "print_hide_if_no_value": 0,
   "print_width": null,
   "read_only": 0,
   "read_only_depends_on": null,
   "report_hide": 0,
   "reqd": 0,
   "search_index": 0,
   "translatable": 1,
   "unique": 0,
   "width": null
  },
  {
   "_assign": null,
   "_comments": null,
   "_liked_by": null,
   "_user_tags": null,
   "allow_in_quick_entry": 0,
   "allow_on_submit": 0,
   "bold": 0,
   "collapsible": 0,
   "collapsible_depends_on": null,
   "columns": 0,
   "creation": "2021-06-18 16:54:20.636814",
   "default": null,
   "depends_on": null,
   "description": null,
   "docstatus": 0,
   "dt": "Customer",
   "fetch_from": null,
   "fetch_if_empty": 0,
   "fieldname": "tcs_disable",
   "fieldtype": "Check",
   "hidden": 0,
   "hide_border": 0,
   "hide_days": 0,
   "hide_seconds": 0,
   "idx": 11,
   "ignore_user_permissions": 0,
   "ignore_xss_filter": 0,
   "in_global_search": 0,
   "in_list_view": 0,
   "in_preview": 0,
   "in_standard_filter": 0,
   "insert_after": "tax_withholding_category",
   "label": "TCS disable",
   "length": 0,
   "mandatory_depends_on": null,
   "modified": "2021-06-18 16:54:20.636814",
   "modified_by": "gurshish@dhupargroup.com",
   "name": "Customer-tcs_disable",
   "no_copy": 0,
   "non_negative": 0,
   "options": null,
   "owner": "gurshish@dhupargroup.com",
   "parent": null,
   "parentfield": null,
   "parenttype": null,
   "permlevel": 0,
   "precision": "",
   "print_hide": 0,
   "print_hide_if_no_value": 0,
   "print_width": null,
   "read_only": 0,
   "read_only_depends_on": null,
   "report_hide": 0,
   "reqd": 0,
   "search_index": 0,
   "translatable": 0,
   "unique": 0,
   "width": null
  },
  {
   "_assign": null,
   "_comments": null,
   "_liked_by": null,
   "_user_tags": null,
   "allow_in_quick_entry": 0,
   "allow_on_submit": 0,
   "bold": 0,
   "collapsible": 0,
   "collapsible_depends_on": null,
   "columns": 0,
   "creation": "2020-03-21 12:51:18.267119",
   "default": "",
   "depends_on": "eval:in_list([\"SEZ\", \"Overseas\", \"Deemed Export\"], doc.gst_category)",
   "description": null,
   "docstatus": 0,
   "dt": "Customer",
   "fetch_from": null,
   "fetch_if_empty": 0,
   "fieldname": "export_type",
   "fieldtype": "Select",
   "hidden": 0,
   "hide_border": 0,
   "hide_days": 0,
   "hide_seconds": 0,
   "idx": 8,
   "ignore_user_permissions": 0,
   "ignore_xss_filter": 0,
   "in_global_search": 0,
   "in_list_view": 0,
   "in_preview": 0,
   "in_standard_filter": 0,
   "insert_after": "gst_category",
   "label": "Export Type",
   "length": 0,
   "mandatory_depends_on": "eval:in_list([\"SEZ\", \"Overseas\", \"Deemed Export\"], doc.gst_category)",
   "modified": "2021-10-21 13:36:04.598472",
   "modified_by": "Administrator",
   "name": "Customer-export_type",
   "no_copy": 0,
   "non_negative": 0,
   "options": "\nWith Payment of Tax\nWithout Payment of Tax",
   "owner": "Administrator",
   "parent": null,
   "parentfield": null,
   "parenttype": null,
   "permlevel": 0,
   "precision": "",
   "print_hide": 0,
   "print_hide_if_no_value": 0,
   "print_width": null,
   "read_only": 0,
   "read_only_depends_on": null,
   "report_hide": 0,
   "reqd": 0,
   "search_index": 0,
   "translatable": 1,
   "unique": 0,
   "width": null
  },
  {
   "_assign": null,
   "_comments": null,
   "_liked_by": null,
   "_user_tags": null,
   "allow_in_quick_entry": 0,
   "allow_on_submit": 0,
   "bold": 0,
   "collapsible": 0,
   "collapsible_depends_on": null,
   "columns": 0,
   "creation": "2022-05-25 11:49:21.983776",
   "default": null,
   "depends_on": null,
   "description": null,
   "docstatus": 0,
   "dt": "Customer",
   "fetch_from": null,
   "fetch_if_empty": 0,
   "fieldname": "debtor_days",
   "fieldtype": "Data",
   "hidden": 0,
   "hide_border": 0,
   "hide_days": 0,
   "hide_seconds": 0,
   "idx": 18,
   "ignore_user_permissions": 0,
   "ignore_xss_filter": 0,
   "in_global_search": 0,
   "in_list_view": 0,
   "in_preview": 0,
   "in_standard_filter": 0,
   "insert_after": "column_break0",
   "label": "Debtor Days",
   "length": 0,
   "mandatory_depends_on": null,
   "modified": "2022-05-25 11:49:21.983776",
   "modified_by": "gurshish@dhupargroup.com",
   "name": "Customer-debtor_days",
   "no_copy": 0,
   "non_negative": 0,
   "options": null,
   "owner": "gurshish@dhupargroup.com",
   "parent": null,
   "parentfield": null,
   "parenttype": null,
   "permlevel": 0,
   "precision": "",
   "print_hide": 0,
   "print_hide_if_no_value": 0,
   "print_width": null,
   "read_only": 1,
   "read_only_depends_on": null,
   "report_hide": 0,
   "reqd": 0,
   "search_index": 0,
   "translatable": 1,
   "unique": 0,
   "width": null
  },
  {
   "_assign": null,
   "_comments": null,
   "_liked_by": null,
   "_user_tags": null,
   "allow_in_quick_entry": 0,
   "allow_on_submit": 0,
   "bold": 0,
   "collapsible": 0,
   "collapsible_depends_on": null,
   "columns": 0,
   "creation": "2022-07-18 12:46:14.503538",
   "default": null,
   "depends_on": null,
   "description": null,
   "docstatus": 0,
   "dt": "Customer",
   "fetch_from": null,
   "fetch_if_empty": 0,
   "fieldname": "sales_person",
   "fieldtype": "Link",
   "hidden": 0,
   "hide_border": 0,
   "hide_days": 0,
   "hide_seconds": 0,
   "idx": 19,
   "ignore_user_permissions": 0,
   "ignore_xss_filter": 0,
   "in_global_search": 0,
   "in_list_view": 0,
   "in_preview": 0,
   "in_standard_filter": 0,
   "insert_after": "debtor_days",
   "label": "Sales Person",
   "length": 0,
   "mandatory_depends_on": null,
   "modified": "2022-07-18 12:46:14.503538",
   "modified_by": "gurshish@dhupargroup.com",
   "name": "Customer-sales_person",
   "no_copy": 0,
   "non_negative": 0,
   "options": "Sales Person",
   "owner": "gurshish@dhupargroup.com",
   "parent": null,
   "parentfield": null,
   "parenttype": null,
   "permlevel": 0,
   "precision": "",
   "print_hide": 0,
   "print_hide_if_no_value": 0,
   "print_width": null,
   "read_only": 0,
   "read_only_depends_on": null,
   "report_hide": 0,
   "reqd": 1,
   "search_index": 0,
   "translatable": 0,
   "unique": 0,
   "width": null
  },
  {
   "_assign": null,
   "_comments": null,
   "_liked_by": null,
   "_user_tags": null,
   "allow_in_quick_entry": 0,
   "allow_on_submit": 0,
   "bold": 0,
   "collapsible": 0,
   "collapsible_depends_on": null,
   "columns": 0,
   "creation": "2023-04-19 10:26:52.894128",
   "default": null,
   "depends_on": null,
   "description": null,
   "docstatus": 0,
   "dt": "Customer",
   "fetch_from": null,
   "fetch_if_empty": 0,
   "fieldname": "vendor_code",
   "fieldtype": "Data",
   "hidden": 0,
   "hide_border": 0,
   "hide_days": 0,
   "hide_seconds": 0,
   "idx": 56,
   "ignore_user_permissions": 0,
   "ignore_xss_filter": 0,
   "in_global_search": 0,
   "in_list_view": 0,
   "in_preview": 0,
   "in_standard_filter": 0,
   "insert_after": "customer_primary_address",
   "label": "Vendor Code",
   "length": 0,
   "mandatory_depends_on": null,
   "modified": "2023-04-19 10:26:52.894128",
   "modified_by": "Administrator",
   "name": "Customer-vendor_code",
   "no_copy": 0,
   "non_negative": 0,
   "options": null,
   "owner": "Administrator",
   "parent": null,
   "parentfield": null,
   "parenttype": null,
   "permlevel": 0,
   "precision": "",
   "print_hide": 0,
   "print_hide_if_no_value": 0,
   "print_width": null,
   "read_only": 0,
   "read_only_depends_on": null,
   "report_hide": 0,
   "reqd": 0,
   "search_index": 0,
   "translatable": 1,
   "unique": 0,
   "width": null
  },
  {
   "_assign": null,
   "_comments": null,
   "_liked_by": null,
   "_user_tags": null,
   "allow_in_quick_entry": 0,
   "allow_on_submit": 0,
   "bold": 0,
   "collapsible": 0,
   "collapsible_depends_on": null,
   "columns": 0,
   "creation": "2023-06-30 12:54:11.625530",
   "default": null,
   "depends_on": null,
   "description": null,
   "docstatus": 0,
   "dt": "Customer",
   "fetch_from": null,
   "fetch_if_empty": 0,
   "fieldname": "shopify_customer_id",
   "fieldtype": "Data",
   "hidden": 0,
   "hide_border": 0,
   "hide_days": 0,
   "hide_seconds": 0,
   "idx": 80,
   "ignore_user_permissions": 0,
   "ignore_xss_filter": 0,
   "in_global_search": 0,
   "in_list_view": 0,
   "in_preview": 0,
   "in_standard_filter": 0,
   "insert_after": "salesforce_id",
   "label": "Shopify Customer Id",
   "length": 0,
   "mandatory_depends_on": null,
   "modified": "2023-07-01 13:25:51.482590",
   "modified_by": "ajaypatole@dhuparbrothers.com",
   "name": "Customer-shopify_customer_id",
   "no_copy": 0,
   "non_negative": 0,
   "options": null,
   "owner": "Administrator",
   "parent": null,
   "parentfield": null,
   "parenttype": null,
   "permlevel": 0,
   "precision": "",
   "print_hide": 1,
   "print_hide_if_no_value": 0,
   "print_width": null,
   "read_only": 1,
   "read_only_depends_on": null,
   "report_hide": 0,
   "reqd": 0,
   "search_index": 0,
   "translatable": 1,
   "unique": 0,
   "width": null
  }
 ],
 "custom_perms": [
  {
   "_assign": null,
   "_comments": null,
   "_liked_by": null,
   "_user_tags": null,
   "amend": 0,
   "apply_user_permissions": 0,
   "cancel": 0,
   "create": 0,
   "creation": "2013-06-11 14:26:44",
   "delete": 0,
   "docstatus": 0,
   "email": 1,
   "export": 1,
   "idx": 9,
   "if_owner": 0,
   "import": 0,
   "modified": "2018-03-28 18:15:01.611890",
   "modified_by": "rohit_rakesh@hotmail.com",
   "name": "5d57fa7caf",
   "owner": "Administrator",
   "parent": "Customer",
   "parentfield": "permissions",
   "parenttype": "DocType",
   "permlevel": 0,
   "print": 1,
   "read": 1,
   "report": 1,
   "role": "Accounts Manager",
   "select": 0,
   "set_user_permissions": 0,
   "share": 0,
   "submit": 0,
   "user_permission_doctypes": null,
   "write": 0
  },
  {
   "_assign": null,
   "_comments": null,
   "_liked_by": null,
   "_user_tags": null,
   "amend": 0,
   "apply_user_permissions": 0,
   "cancel": 0,
   "create": 1,
   "creation": "2013-06-11 14:26:44",
   "delete": 0,
   "docstatus": 0,
   "email": 1,
   "export": 0,
   "idx": 3,
   "if_owner": 0,
   "import": 0,
   "modified": "2018-03-28 18:15:01.628799",
   "modified_by": "rohit_rakesh@hotmail.com",
   "name": "820a254562",
   "owner": "Administrator",
   "parent": "Customer",
   "parentfield": "permissions",
   "parenttype": "DocType",
   "permlevel": 0,
   "print": 1,
   "read": 1,
   "report": 1,
   "role": "Sales Manager",
   "select": 0,
   "set_user_permissions": 0,
   "share": 1,
   "submit": 0,
   "user_permission_doctypes": null,
   "write": 1
  },
  {
   "_assign": null,
   "_comments": null,
   "_liked_by": null,
   "_user_tags": null,
   "amend": 0,
   "apply_user_permissions": 0,
   "cancel": 0,
   "create": 0,
   "creation": "2013-06-11 14:26:44",
   "delete": 0,
   "docstatus": 0,
   "email": 1,
   "export": 0,
   "idx": 6,
   "if_owner": 0,
   "import": 0,
   "modified": "2018-03-28 18:15:01.639145",
   "modified_by": "rohit_rakesh@hotmail.com",
   "name": "f8876d0083",
   "owner": "Administrator",
   "parent": "Customer",
   "parentfield": "permissions",
   "parenttype": "DocType",
   "permlevel": 0,
   "print": 1,
   "read": 1,
   "report": 1,
   "role": "Stock User",
   "select": 0,
   "set_user_permissions": 0,
   "share": 0,
   "submit": 0,
   "user_permission_doctypes": null,
   "write": 0
  },
  {
   "_assign": null,
   "_comments": null,
   "_liked_by": null,
   "_user_tags": null,
   "amend": 0,
   "apply_user_permissions": 0,
   "cancel": 0,
   "create": 0,
   "creation": "2013-06-11 14:26:44",
   "delete": 0,
   "docstatus": 0,
   "email": 1,
   "export": 0,
   "idx": 7,
   "if_owner": 0,
   "import": 0,
   "modified": "2018-03-28 18:15:01.648331",
   "modified_by": "rohit_rakesh@hotmail.com",
   "name": "11317158af",
   "owner": "Administrator",
   "parent": "Customer",
   "parentfield": "permissions",
   "parenttype": "DocType",
   "permlevel": 0,
   "print": 1,
   "read": 1,
   "report": 1,
   "role": "Stock Manager",
   "select": 0,
   "set_user_permissions": 0,
   "share": 0,
   "submit": 0,
   "user_permission_doctypes": null,
   "write": 0
  },
  {
   "_assign": null,
   "_comments": null,
   "_liked_by": null,
   "_user_tags": null,
   "amend": 0,
   "apply_user_permissions": 0,
   "cancel": 0,
   "create": 1,
   "creation": "2013-06-11 14:26:44",
   "delete": 0,
   "docstatus": 0,
   "email": 1,
   "export": 1,
   "idx": 1,
   "if_owner": 0,
   "import": 0,
   "modified": "2018-03-28 18:15:01.659251",
   "modified_by": "rohit_rakesh@hotmail.com",
   "name": "38d7d60811",
   "owner": "Administrator",
   "parent": "Customer",
   "parentfield": "permissions",
   "parenttype": "DocType",
   "permlevel": 0,
   "print": 1,
   "read": 1,
   "report": 1,
   "role": "Sales User",
   "select": 0,
   "set_user_permissions": 0,
   "share": 1,
   "submit": 0,
   "user_permission_doctypes": null,
   "write": 1
  },
  {
   "_assign": null,
   "_comments": null,
   "_liked_by": null,
   "_user_tags": null,
   "amend": 0,
   "apply_user_permissions": 0,
   "cancel": 0,
   "create": 0,
   "creation": "2013-06-11 14:26:44",
   "delete": 0,
   "docstatus": 0,
   "email": 0,
   "export": 0,
   "idx": 2,
   "if_owner": 0,
   "import": 0,
   "modified": "2018-03-28 18:15:01.670394",
   "modified_by": "rohit_rakesh@hotmail.com",
   "name": "ab091c4511",
   "owner": "Administrator",
   "parent": "Customer",
   "parentfield": "permissions",
   "parenttype": "DocType",
   "permlevel": 1,
   "print": 0,
   "read": 1,
   "report": 0,
   "role": "Sales User",
   "select": 0,
   "set_user_permissions": 0,
   "share": 0,
   "submit": 0,
   "user_permission_doctypes": null,
   "write": 0
  },
  {
   "_assign": null,
   "_comments": null,
   "_liked_by": null,
   "_user_tags": null,
   "amend": 0,
   "apply_user_permissions": 0,
   "cancel": 0,
   "create": 1,
   "creation": "2013-06-11 14:26:44",
   "delete": 1,
   "docstatus": 0,
   "email": 1,
   "export": 0,
   "idx": 4,
   "if_owner": 0,
   "import": 0,
   "modified": "2018-03-28 18:15:01.681554",
   "modified_by": "rohit_rakesh@hotmail.com",
   "name": "b8aa6e90b5",
   "owner": "Administrator",
   "parent": "Customer",
   "parentfield": "permissions",
   "parenttype": "DocType",
   "permlevel": 0,
   "print": 1,
   "read": 1,
   "report": 1,
   "role": "Sales Master Manager",
   "select": 0,
   "set_user_permissions": 1,
   "share": 1,
   "submit": 0,
   "user_permission_doctypes": null,
   "write": 1
  },
  {
   "_assign": null,
   "_comments": null,
   "_liked_by": null,
   "_user_tags": null,
   "amend": 0,
   "apply_user_permissions": 0,
   "cancel": 0,
   "create": 0,
   "creation": "2013-06-11 14:26:44",
   "delete": 0,
   "docstatus": 0,
   "email": 0,
   "export": 0,
   "idx": 5,
   "if_owner": 0,
   "import": 0,
   "modified": "2018-03-28 18:15:01.693678",
   "modified_by": "rohit_rakesh@hotmail.com",
   "name": "e3fc44c868",
   "owner": "Administrator",
   "parent": "Customer",
   "parentfield": "permissions",
   "parenttype": "DocType",
   "permlevel": 1,
   "print": 0,
   "read": 1,
   "report": 0,
   "role": "Sales Master Manager",
   "select": 0,
   "set_user_permissions": 0,
   "share": 0,
   "submit": 0,
   "user_permission_doctypes": null,
   "write": 1
  },
  {
   "_assign": null,
   "_comments": null,
   "_liked_by": null,
   "_user_tags": null,
   "amend": 0,
   "apply_user_permissions": 0,
   "cancel": 0,
   "create": 0,
   "creation": "2013-06-11 14:26:44",
   "delete": 0,
   "docstatus": 0,
   "email": 1,
   "export": 0,
   "idx": 8,
   "if_owner": 0,
   "import": 0,
   "modified": "2018-03-28 18:15:01.705317",
   "modified_by": "rohit_rakesh@hotmail.com",
   "name": "c1ff3cbc26",
   "owner": "Administrator",
   "parent": "Customer",
   "parentfield": "permissions",
   "parenttype": "DocType",
   "permlevel": 0,
   "print": 1,
   "read": 1,
   "report": 1,
   "role": "Accounts User",
   "select": 0,
   "set_user_permissions": 0,
   "share": 0,
   "submit": 0,
   "user_permission_doctypes": null,
   "write": 0
  },
  {
   "_assign": null,
   "_comments": null,
   "_liked_by": null,
   "_user_tags": null,
   "amend": 0,
   "apply_user_permissions": 0,
   "cancel": 0,
   "create": 1,
   "creation": "2018-12-25 15:55:56.752665",
   "delete": 1,
   "docstatus": 0,
   "email": 1,
   "export": 1,
   "idx": 0,
   "if_owner": 0,
   "import": 0,
   "modified": "2018-12-25 15:55:56.752665",
   "modified_by": "gurshish@dhupargroup.com",
   "name": "bfb69ff9e7",
   "owner": "gurshish@dhupargroup.com",
   "parent": "Customer",
   "parentfield": "permissions",
   "parenttype": "DocType",
   "permlevel": 0,
   "print": 1,
   "read": 1,
   "report": 1,
   "role": "Credit setter",
   "select": 0,
   "set_user_permissions": 0,
   "share": 1,
   "submit": 0,
   "user_permission_doctypes": null,
   "write": 1
  },
  {
   "_assign": null,
   "_comments": null,
   "_liked_by": null,
   "_user_tags": null,
   "amend": 0,
   "apply_user_permissions": 0,
   "cancel": 0,
   "create": 1,
   "creation": "2018-12-25 15:56:17.726339",
   "delete": 1,
   "docstatus": 0,
   "email": 1,
   "export": 1,
   "idx": 0,
   "if_owner": 0,
   "import": 0,
   "modified": "2018-12-25 15:56:17.726339",
   "modified_by": "gurshish@dhupargroup.com",
   "name": "5be42e12db",
   "owner": "gurshish@dhupargroup.com",
   "parent": "Customer",
   "parentfield": "permissions",
   "parenttype": "DocType",
   "permlevel": 2,
   "print": 1,
   "read": 1,
   "report": 1,
   "role": "Credit setter",
   "select": 0,
   "set_user_permissions": 0,
   "share": 1,
   "submit": 0,
   "user_permission_doctypes": null,
   "write": 1
  },
  {
   "_assign": null,
   "_comments": null,
   "_liked_by": null,
   "_user_tags": null,
   "amend": 0,
   "apply_user_permissions": 0,
   "cancel": 0,
   "create": 0,
   "creation": "2019-09-19 17:56:04.870872",
   "delete": 0,
   "docstatus": 0,
   "email": 0,
   "export": 0,
   "idx": 0,
   "if_owner": 0,
   "import": 0,
   "modified": "2019-09-19 17:56:04.870872",
   "modified_by": "gurshish@dhupargroup.com",
   "name": "71b2c0f689",
   "owner": "gurshish@dhupargroup.com",
   "parent": "Customer",
   "parentfield": "permissions",
   "parenttype": "DocType",
   "permlevel": 0,
   "print": 0,
   "read": 1,
   "report": 0,
   "role": "Supplier Quote",
   "select": 0,
   "set_user_permissions": 0,
   "share": 0,
   "submit": 0,
   "user_permission_doctypes": null,
   "write": 0
  },
  {
   "_assign": null,
   "_comments": null,
   "_liked_by": null,
   "_user_tags": null,
   "amend": 0,
   "apply_user_permissions": 0,
   "cancel": 0,
   "create": 0,
   "creation": "2023-05-12 12:36:01.384649",
   "delete": 0,
   "docstatus": 0,
   "email": 0,
   "export": 1,
   "idx": 0,
   "if_owner": 0,
   "import": 0,
   "modified": "2023-05-12 12:36:01.384649",
   "modified_by": "ajaypatole@dhuparbrothers.com",
   "name": "da9314a763",
   "owner": "ajaypatole@dhuparbrothers.com",
   "parent": "Customer",
   "parentfield": "permissions",
   "parenttype": "DocType",
   "permlevel": 0,
   "print": 0,
   "read": 1,
   "report": 0,
   "role": "Customer Portal",
   "select": 0,
   "set_user_permissions": 0,
   "share": 0,
   "submit": 0,
   "user_permission_doctypes": null,
   "write": 0
  }
 ],
 "doctype": "Customer",
 "property_setters": [
  {
   "_assign": null,
   "_comments": null,
   "_liked_by": null,
   "_user_tags": null,
   "creation": "2023-08-11 16:47:06.822518",
   "default_value": null,
   "doc_type": "Customer",
   "docstatus": 0,
   "doctype_or_field": "DocField",
   "field_name": "payment_terms",
   "idx": 0,
   "modified": "2023-08-11 16:47:06.822518",
   "modified_by": "ajaypatole@dhuparbrothers.com",
   "name": "Customer-payment_terms-default",
   "owner": "ajaypatole@dhuparbrothers.com",
   "parent": null,
   "parentfield": null,
   "parenttype": null,
   "property": "default",
   "property_type": "Text",
   "row_name": null,
   "value": "Against Proforma Invoice"
  },
  {
   "_assign": null,
   "_comments": null,
   "_liked_by": null,
   "_user_tags": null,
   "creation": "2023-08-11 16:47:06.662670",
   "default_value": null,
   "doc_type": "Customer",
   "docstatus": 0,
   "doctype_or_field": "DocField",
   "field_name": "credit_limit_section",
   "idx": 0,
   "modified": "2023-08-11 16:47:06.662670",
   "modified_by": "ajaypatole@dhuparbrothers.com",
   "name": "Customer-credit_limit_section-collapsible",
   "owner": "ajaypatole@dhuparbrothers.com",
   "parent": null,
   "parentfield": null,
   "parenttype": null,
   "property": "collapsible",
   "property_type": "Check",
   "row_name": null,
   "value": "0"
  },
  {
   "_assign": null,
   "_comments": null,
   "_liked_by": null,
   "_user_tags": null,
   "creation": "2022-11-14 14:54:45.967837",
   "default_value": null,
   "doc_type": "Customer",
   "docstatus": 0,
   "doctype_or_field": "DocField",
   "field_name": "pan",
   "idx": 0,
   "modified": "2022-11-14 14:54:45.967837",
   "modified_by": "rohit_rakesh@hotmail.com",
   "name": "Customer-pan-mandatory_depends_on",
   "owner": "rohit_rakesh@hotmail.com",
   "parent": null,
   "parentfield": null,
   "parenttype": null,
   "property": "mandatory_depends_on",
   "property_type": "Data",
   "row_name": null,
   "value": "eval:doc.gst_category==\"Registered Regular\""
  },
  {
   "_assign": null,
   "_comments": null,
   "_liked_by": null,
   "_user_tags": null,
   "creation": "2022-10-03 15:44:00.843787",
   "default_value": null,
   "doc_type": "Customer",
   "docstatus": 0,
   "doctype_or_field": "DocField",
   "field_name": "sales_team_section",
   "idx": 0,
   "modified": "2022-10-03 15:44:00.843787",
   "modified_by": "Administrator",
   "name": "Customer-sales_team_section-hidden",
   "owner": "Administrator",
   "parent": null,
   "parentfield": null,
   "parenttype": null,
   "property": "hidden",
   "property_type": "Check",
   "row_name": null,
   "value": "1"
  },
  {
   "_assign": null,
   "_comments": null,
   "_liked_by": null,
   "_user_tags": null,
   "creation": "2022-09-09 14:15:50.574883",
   "default_value": null,
   "doc_type": "Customer",
   "docstatus": 0,
   "doctype_or_field": "DocField",
   "field_name": "naming_series",
   "idx": 0,
   "modified": "2022-09-09 14:15:50.574883",
   "modified_by": "Administrator",
   "name": "Customer-naming_series-hidden",
   "owner": "Administrator",
   "parent": null,
   "parentfield": null,
   "parenttype": null,
   "property": "hidden",
   "property_type": "Check",
   "row_name": null,
   "value": "1"
  },
  {
   "_assign": null,
   "_comments": null,
   "_liked_by": null,
   "_user_tags": null,
   "creation": "2022-09-09 14:15:50.543770",
   "default_value": null,
   "doc_type": "Customer",
   "docstatus": 0,
   "doctype_or_field": "DocField",
   "field_name": "naming_series",
   "idx": 0,
   "modified": "2022-09-09 14:15:50.543770",
   "modified_by": "Administrator",
   "name": "Customer-naming_series-reqd",
   "owner": "Administrator",
   "parent": null,
   "parentfield": null,
   "parenttype": null,
   "property": "reqd",
   "property_type": "Check",
   "row_name": null,
   "value": "0"
  },
  {
   "_assign": null,
   "_comments": null,
   "_liked_by": null,
   "_user_tags": null,
   "creation": "2022-07-18 12:46:14.289733",
   "default_value": null,
   "doc_type": "Customer",
   "docstatus": 0,
   "doctype_or_field": "DocField",
   "field_name": "account_manager",
   "idx": 0,
   "modified": "2022-07-18 12:46:14.289733",
   "modified_by": "gurshish@dhupargroup.com",
   "name": "Customer-account_manager-hidden",
   "owner": "gurshish@dhupargroup.com",
   "parent": null,
   "parentfield": null,
   "parenttype": null,
   "property": "hidden",
   "property_type": "Check",
   "row_name": null,
   "value": "1"
  },
  {
   "_assign": null,
   "_comments": null,
   "_liked_by": null,
   "_user_tags": null,
   "creation": "2022-03-09 12:09:46.634172",
   "default_value": null,
   "doc_type": "Customer",
   "docstatus": 0,
   "doctype_or_field": "DocField",
   "field_name": "tax_id",
   "idx": 0,
   "modified": "2022-03-09 12:09:46.634172",
   "modified_by": "gurshish@dhupargroup.com",
   "name": "Customer-tax_id-mandatory_depends_on",
   "owner": "gurshish@dhupargroup.com",
   "parent": null,
   "parentfield": null,
   "parenttype": null,
   "property": "mandatory_depends_on",
   "property_type": "Data",
   "row_name": null,
   "value": "eval:doc.gst_category==\"Registered Regular\""
  },
  {
   "_assign": null,
   "_comments": null,
   "_liked_by": null,
   "_user_tags": null,
   "creation": "2022-02-07 11:43:42.335763",
   "default_value": null,
   "doc_type": "Customer",
   "docstatus": 0,
   "doctype_or_field": "DocField",
   "field_name": "territory",
   "idx": 0,
   "modified": "2022-02-07 11:43:42.335763",
   "modified_by": "gurshish@dhupargroup.com",
   "name": "Customer-territory-default",
   "owner": "gurshish@dhupargroup.com",
   "parent": null,
   "parentfield": null,
   "parenttype": null,
   "property": "default",
   "property_type": "Text",
   "row_name": null,
   "value": "\n"
  },
  {
   "_assign": null,
   "_comments": null,
   "_liked_by": null,
   "_user_tags": null,
   "creation": "2021-04-05 16:27:44.522643",
   "default_value": null,
   "doc_type": "Customer",
   "docstatus": 0,
   "doctype_or_field": "DocField",
   "field_name": "credit_limits",
   "idx": 0,
   "modified": "2021-04-05 16:27:44.522643",
   "modified_by": "rohit_rakesh@hotmail.com",
   "name": "Customer-credit_limits-default",
   "owner": "rohit_rakesh@hotmail.com",
   "parent": null,
   "parentfield": null,
   "parenttype": null,
   "property": "default",
   "property_type": "Text",
   "row_name": null,
   "value": "\n30 DAYS"
  },
  {
   "_assign": null,
   "_comments": null,
   "_liked_by": null,
   "_user_tags": null,
   "creation": "2021-03-09 17:22:00.998620",
   "default_value": null,
   "doc_type": "Customer",
   "docstatus": 0,
   "doctype_or_field": "DocField",
   "field_name": "customer_details",
   "idx": 0,
   "modified": "2021-03-09 17:22:00.998620",
   "modified_by": "rohit_rakesh@hotmail.com",
   "name": "Customer-customer_details-label",
   "owner": "rohit_rakesh@hotmail.com",
   "parent": null,
   "parentfield": null,
   "parenttype": null,
   "property": "label",
   "property_type": "Data",
   "row_name": null,
   "value": "Customer Details / Vendor Code"
  },
  {
   "_assign": null,
   "_comments": null,
   "_liked_by": null,
   "_user_tags": null,
   "creation": "2022-09-02 11:19:51.254016",
   "default_value": null,
   "doc_type": "Customer",
   "docstatus": 0,
   "doctype_or_field": "DocType",
   "field_name": null,
   "idx": 0,
   "modified": "2019-12-20 11:43:13.395303",
   "modified_by": "Administrator",
   "name": "Customer-read_only_onload",
   "owner": "Administrator",
   "parent": null,
   "parentfield": null,
   "parenttype": null,
   "property": "read_only_onload",
   "property_type": "Check",
   "row_name": null,
   "value": null
  },
  {
   "_assign": null,
   "_comments": null,
   "_liked_by": null,
   "_user_tags": null,
   "creation": "2022-09-02 11:19:45.346931",
   "default_value": null,
   "doc_type": "Customer",
   "docstatus": 0,
   "doctype_or_field": "DocField",
   "field_name": "payment_terms",
   "idx": 0,
   "modified": "2019-05-16 13:36:31.337386",
   "modified_by": "Administrator",
   "name": "Customer-payment_terms-reqd",
   "owner": "Administrator",
   "parent": null,
   "parentfield": null,
   "parenttype": null,
   "property": "reqd",
   "property_type": "Check",
   "row_name": null,
   "value": "1"
  },
  {
   "_assign": null,
   "_comments": null,
   "_liked_by": null,
   "_user_tags": null,
   "creation": "2022-09-02 11:19:42.698110",
   "default_value": null,
   "doc_type": "Customer",
   "docstatus": 0,
   "doctype_or_field": "DocField",
   "field_name": "credit_limit",
   "idx": 0,
   "modified": "2018-12-25 15:40:39.156226",
   "modified_by": "Administrator",
   "name": "Customer-credit_limit-permlevel",
   "owner": "Administrator",
   "parent": null,
   "parentfield": null,
   "parenttype": null,
   "property": "permlevel",
   "property_type": "Int",
   "row_name": null,
   "value": "2"
  },
  {
   "_assign": null,
   "_comments": null,
   "_liked_by": null,
   "_user_tags": null,
   "creation": "2022-09-02 11:19:42.643290",
   "default_value": null,
   "doc_type": "Customer",
   "docstatus": 0,
   "doctype_or_field": "DocField",
   "field_name": "credit_limit",
   "idx": 0,
   "modified": "2018-12-25 15:34:53.267206",
   "modified_by": "Administrator",
   "name": "Customer-credit_limit-default",
   "owner": "Administrator",
   "parent": null,
   "parentfield": null,
   "parenttype": null,
   "property": "default",
   "property_type": "Text",
   "row_name": null,
   "value": "1"
  },
  {
   "_assign": null,
   "_comments": null,
   "_liked_by": null,
   "_user_tags": null,
   "creation": "2022-09-02 11:19:42.575758",
   "default_value": null,
   "doc_type": "Customer",
   "docstatus": 0,
   "doctype_or_field": "DocField",
   "field_name": "customer_type",
   "idx": 0,
   "modified": "2018-12-25 14:57:17.528291",
   "modified_by": "Administrator",
   "name": "Customer-customer_type-options",
   "owner": "Administrator",
   "parent": null,
   "parentfield": null,
   "parenttype": null,
   "property": "options",
   "property_type": "Text",
   "row_name": null,
   "value": "Company\nIndividual\nSez\n"
  },
  {
   "_assign": null,
   "_comments": null,
   "_liked_by": null,
   "_user_tags": null,
   "creation": "2022-09-02 11:19:42.525251",
   "default_value": null,
   "doc_type": "Customer",
   "docstatus": 0,
   "doctype_or_field": "DocType",
   "field_name": null,
   "idx": 0,
   "modified": "2018-12-25 14:41:44.818701",
   "modified_by": "Administrator",
   "name": "Customer-quick_entry",
   "owner": "Administrator",
   "parent": null,
   "parentfield": null,
   "parenttype": null,
   "property": "quick_entry",
   "property_type": "Check",
   "row_name": null,
   "value": "0"
  },
  {
   "_assign": null,
   "_comments": null,
   "_liked_by": null,
   "_user_tags": null,
   "creation": "2022-09-02 11:19:42.450708",
   "default_value": null,
   "doc_type": "Customer",
   "docstatus": 0,
   "doctype_or_field": "DocField",
   "field_name": "email_id",
   "idx": 0,
   "modified": "2018-12-25 14:39:57.863575",
   "modified_by": "Administrator",
   "name": "Customer-email_id-hidden",
   "owner": "Administrator",
   "parent": null,
   "parentfield": null,
   "parenttype": null,
   "property": "hidden",
   "property_type": "Check",
   "row_name": null,
   "value": "1"
  },
  {
   "_assign": null,
   "_comments": null,
   "_liked_by": null,
   "_user_tags": null,
   "creation": "2022-09-02 11:19:42.382899",
   "default_value": null,
   "doc_type": "Customer",
   "docstatus": 0,
   "doctype_or_field": "DocField",
   "field_name": "tax_id",
   "idx": 0,
   "modified": "2018-12-25 11:52:27.423888",
   "modified_by": "Administrator",
   "name": "Customer-tax_id-label",
   "owner": "Administrator",
   "parent": null,
   "parentfield": null,
   "parenttype": null,
   "property": "label",
   "property_type": "Data",
   "row_name": null,
   "value": "GSTIN"
  },
  {
   "_assign": null,
   "_comments": null,
   "_liked_by": null,
   "_user_tags": null,
   "creation": "2022-09-02 11:19:42.332190",
   "default_value": null,
   "doc_type": "Customer",
   "docstatus": 0,
   "doctype_or_field": "DocField",
   "field_name": "lead_name",
   "idx": 0,
   "modified": "2018-12-25 11:51:20.873860",
   "modified_by": "Administrator",
   "name": "Customer-lead_name-hidden",
   "owner": "Administrator",
   "parent": null,
   "parentfield": null,
   "parenttype": null,
   "property": "hidden",
   "property_type": "Check",
   "row_name": null,
   "value": "1"
  },
  {
   "_assign": null,
   "_comments": null,
   "_liked_by": null,
   "_user_tags": null,
   "creation": "2022-09-02 11:19:41.123041",
   "default_value": null,
   "doc_type": "Customer",
   "docstatus": 0,
   "doctype_or_field": "DocField",
   "field_name": "customer_primary_contact",
   "idx": 0,
   "modified": "2018-11-24 10:49:31.803508",
   "modified_by": "Administrator",
   "name": "Customer-customer_primary_contact-width",
   "owner": "Administrator",
   "parent": null,
   "parentfield": null,
   "parenttype": null,
   "property": "width",
   "property_type": null,
   "row_name": null,
   "value": "164"
  },
  {
   "_assign": null,
   "_comments": null,
   "_liked_by": null,
   "_user_tags": null,
   "creation": "2022-09-02 11:19:35.878194",
   "default_value": null,
   "doc_type": "Customer",
   "docstatus": 0,
   "doctype_or_field": "DocField",
   "field_name": "naming_series",
   "idx": 0,
   "modified": "2018-10-10 22:12:44.071554",
   "modified_by": "Administrator",
   "name": "Customer-naming_series-options",
   "owner": "Administrator",
   "parent": null,
   "parentfield": null,
   "parenttype": null,
   "property": "options",
   "property_type": "Text",
   "row_name": null,
   "value": "CUST-"
  },
  {
   "_assign": null,
   "_comments": null,
   "_liked_by": null,
   "_user_tags": null,
   "creation": "2022-09-02 11:19:39.055859",
   "default_value": null,
   "doc_type": "Customer",
   "docstatus": 0,
   "doctype_or_field": "DocField",
   "field_name": "customer_name",
   "idx": 0,
   "modified": "2018-09-10 17:28:51.051539",
   "modified_by": "Administrator",
   "name": "Customer-customer_name-width",
   "owner": "Administrator",
   "parent": null,
   "parentfield": null,
   "parenttype": null,
   "property": "width",
   "property_type": null,
   "row_name": null,
   "value": "274"
  },
  {
   "_assign": null,
   "_comments": null,
   "_liked_by": null,
   "_user_tags": null,
   "creation": "2022-09-02 11:19:38.852767",
   "default_value": null,
   "doc_type": "Customer",
   "docstatus": 0,
   "doctype_or_field": "DocField",
   "field_name": "customer_group",
   "idx": 0,
   "modified": "2018-08-25 12:57:18.084541",
   "modified_by": "Administrator",
   "name": "Customer-customer_group-width",
   "owner": "Administrator",
   "parent": null,
   "parentfield": null,
   "parenttype": null,
   "property": "width",
   "property_type": null,
   "row_name": null,
   "value": "242"
  },
  {
   "_assign": null,
   "_comments": null,
   "_liked_by": null,
   "_user_tags": null,
   "creation": "2022-09-02 11:19:25.539708",
   "default_value": null,
   "doc_type": "Customer",
   "docstatus": 0,
   "doctype_or_field": "DocField",
   "field_name": "territory",
   "idx": 0,
   "modified": "2018-03-24 12:49:41.820476",
   "modified_by": "Administrator",
   "name": "Customer-territory-in_list_view",
   "owner": "Administrator",
   "parent": null,
   "parentfield": null,
   "parenttype": null,
   "property": "in_list_view",
   "property_type": "Check",
   "row_name": null,
   "value": "0"
  }
 ],
 "sync_on_migrate": 1
}