{
 "custom_fields": [
  {
   "_assign": null,
   "_comments": null,
   "_liked_by": null,
   "_user_tags": null,
   "allow_in_quick_entry": 0,
   "allow_on_submit": 0,
   "bold": 0,
   "collapsible": 0,
   "collapsible_depends_on": null,
   "columns": 0,
   "creation": "2022-09-02 11:16:29.350924",
   "default": null,
   "depends_on": null,
   "description": null,
   "docstatus": 0,
   "dt": "Sales Order",
   "fetch_from": null,
   "fetch_if_empty": 0,
   "fieldname": "section_break_16",
   "fieldtype": "Section Break",
   "hidden": 0,
   "hide_border": 0,
   "hide_days": 0,
   "hide_seconds": 0,
   "idx": 27,
   "ignore_user_permissions": 0,
   "ignore_xss_filter": 0,
   "in_global_search": 0,
   "in_list_view": 0,
   "in_preview": 0,
   "in_standard_filter": 0,
   "insert_after": "tax_id",
   "label": "",
   "length": 0,
   "mandatory_depends_on": null,
   "modified": "2019-09-30 11:11:05.569484",
   "modified_by": "Administrator",
   "name": "Sales Order-section_break_16",
   "no_copy": 0,
   "non_negative": 0,
   "options": null,
   "owner": "Administrator",
   "parent": null,
   "parentfield": null,
   "parenttype": null,
   "permlevel": 0,
   "precision": "",
   "print_hide": 0,
   "print_hide_if_no_value": 0,
   "print_width": null,
   "read_only": 0,
   "read_only_depends_on": null,
   "report_hide": 0,
   "reqd": 0,
   "search_index": 0,
   "translatable": 0,
   "unique": 0,
   "width": null
  },
  {
   "_assign": null,
   "_comments": null,
   "_liked_by": null,
   "_user_tags": null,
   "allow_in_quick_entry": 0,
   "allow_on_submit": 0,
   "bold": 0,
   "collapsible": 0,
   "collapsible_depends_on": null,
   "columns": 0,
   "creation": "2022-09-02 11:16:33.483627",
   "default": null,
   "depends_on": null,
   "description": null,
   "docstatus": 0,
   "dt": "Sales Order",
   "fetch_from": null,
   "fetch_if_empty": 0,
   "fieldname": "column_break_18",
   "fieldtype": "Column Break",
   "hidden": 0,
   "hide_border": 0,
   "hide_days": 0,
   "hide_seconds": 0,
   "idx": 167,
   "ignore_user_permissions": 0,
   "ignore_xss_filter": 0,
   "in_global_search": 0,
   "in_list_view": 0,
   "in_preview": 0,
   "in_standard_filter": 0,
   "insert_after": "test_field",
   "label": null,
   "length": 0,
   "mandatory_depends_on": null,
   "modified": "2019-10-01 16:19:34.071971",
   "modified_by": "Administrator",
   "name": "Sales Order-column_break_18",
   "no_copy": 0,
   "non_negative": 0,
   "options": null,
   "owner": "Administrator",
   "parent": null,
   "parentfield": null,
   "parenttype": null,
   "permlevel": 0,
   "precision": "",
   "print_hide": 0,
   "print_hide_if_no_value": 0,
   "print_width": null,
   "read_only": 0,
   "read_only_depends_on": null,
   "report_hide": 0,
   "reqd": 0,
   "search_index": 0,
   "translatable": 0,
   "unique": 0,
   "width": null
  },
  {
   "_assign": null,
   "_comments": null,
   "_liked_by": null,
   "_user_tags": null,
   "allow_in_quick_entry": 0,
   "allow_on_submit": 0,
   "bold": 0,
   "collapsible": 0,
   "collapsible_depends_on": null,
   "columns": 0,
   "creation": "2022-09-02 11:17:46.339711",
   "default": null,
   "depends_on": null,
   "description": null,
   "docstatus": 0,
   "dt": "Sales Order",
   "fetch_from": null,
   "fetch_if_empty": 0,
   "fieldname": "test_field",
   "fieldtype": "Data",
   "hidden": 0,
   "hide_border": 0,
   "hide_days": 0,
   "hide_seconds": 0,
   "idx": 166,
   "ignore_user_permissions": 0,
   "ignore_xss_filter": 0,
   "in_global_search": 0,
   "in_list_view": 0,
   "in_preview": 0,
   "in_standard_filter": 0,
   "insert_after": "update_auto_repeat_reference",
   "label": "test field",
   "length": 0,
   "mandatory_depends_on": null,
   "modified": "2019-10-24 12:39:50.337600",
   "modified_by": "Administrator",
   "name": "Sales Order-test_field",
   "no_copy": 0,
   "non_negative": 0,
   "options": null,
   "owner": "Administrator",
   "parent": null,
   "parentfield": null,
   "parenttype": null,
   "permlevel": 0,
   "precision": "",
   "print_hide": 0,
   "print_hide_if_no_value": 0,
   "print_width": null,
   "read_only": 0,
   "read_only_depends_on": null,
   "report_hide": 0,
   "reqd": 0,
   "search_index": 0,
   "translatable": 1,
   "unique": 0,
   "width": null
  },
  {
   "_assign": null,
   "_comments": null,
   "_liked_by": null,
   "_user_tags": null,
   "allow_in_quick_entry": 0,
   "allow_on_submit": 0,
   "bold": 0,
   "collapsible": 0,
   "collapsible_depends_on": null,
   "columns": 0,
   "creation": "2019-12-03 20:10:15.352340",
   "default": null,
   "depends_on": null,
   "description": null,
   "docstatus": 0,
   "dt": "Sales Order",
   "fetch_from": "customer_address.gstin",
   "fetch_if_empty": 0,
   "fieldname": "billing_address_gstin",
   "fieldtype": "Data",
   "hidden": 0,
   "hide_border": 0,
   "hide_days": 0,
   "hide_seconds": 0,
   "idx": 37,
   "ignore_user_permissions": 0,
   "ignore_xss_filter": 0,
   "in_global_search": 0,
   "in_list_view": 0,
   "in_preview": 0,
   "in_standard_filter": 0,
   "insert_after": "customer_address",
   "label": "Billing Address GSTIN",
   "length": 0,
   "mandatory_depends_on": null,
   "modified": "2019-11-06 17:05:04.093960",
   "modified_by": "Administrator",
   "name": "Sales Order-billing_address_gstin",
   "no_copy": 0,
   "non_negative": 0,
   "options": null,
   "owner": "Administrator",
   "parent": null,
   "parentfield": null,
   "parenttype": null,
   "permlevel": 0,
   "precision": "",
   "print_hide": 1,
   "print_hide_if_no_value": 0,
   "print_width": null,
   "read_only": 0,
   "read_only_depends_on": null,
   "report_hide": 0,
   "reqd": 0,
   "search_index": 0,
   "translatable": 1,
   "unique": 0,
   "width": null
  },
  {
   "_assign": null,
   "_comments": null,
   "_liked_by": null,
   "_user_tags": null,
   "allow_in_quick_entry": 0,
   "allow_on_submit": 0,
   "bold": 0,
   "collapsible": 0,
   "collapsible_depends_on": null,
   "columns": 0,
   "creation": "2019-12-03 20:10:20.883556",
   "default": null,
   "depends_on": null,
   "description": null,
   "docstatus": 0,
   "dt": "Sales Order",
   "fetch_from": "shipping_address_name.gstin",
   "fetch_if_empty": 0,
   "fieldname": "customer_gstin",
   "fieldtype": "Data",
   "hidden": 0,
   "hide_border": 0,
   "hide_days": 0,
   "hide_seconds": 0,
   "idx": 52,
   "ignore_user_permissions": 0,
   "ignore_xss_filter": 0,
   "in_global_search": 0,
   "in_list_view": 0,
   "in_preview": 0,
   "in_standard_filter": 0,
   "insert_after": "shipping_address_name",
   "label": "Customer GSTIN",
   "length": 0,
   "mandatory_depends_on": null,
   "modified": "2019-11-06 17:05:04.608174",
   "modified_by": "Administrator",
   "name": "Sales Order-customer_gstin",
   "no_copy": 0,
   "non_negative": 0,
   "options": null,
   "owner": "Administrator",
   "parent": null,
   "parentfield": null,
   "parenttype": null,
   "permlevel": 0,
   "precision": "",
   "print_hide": 1,
   "print_hide_if_no_value": 0,
   "print_width": null,
   "read_only": 0,
   "read_only_depends_on": null,
   "report_hide": 0,
   "reqd": 0,
   "search_index": 0,
   "translatable": 1,
   "unique": 0,
   "width": null
  },
  {
   "_assign": null,
   "_comments": null,
   "_liked_by": null,
   "_user_tags": null,
   "allow_in_quick_entry": 0,
   "allow_on_submit": 0,
   "bold": 0,
   "collapsible": 0,
   "collapsible_depends_on": null,
   "columns": 0,
   "creation": "2019-12-03 20:10:22.653759",
   "default": null,
   "depends_on": null,
   "description": null,
   "docstatus": 0,
   "dt": "Sales Order",
   "fetch_from": null,
   "fetch_if_empty": 0,
   "fieldname": "place_of_supply",
   "fieldtype": "Data",
   "hidden": 0,
   "hide_border": 0,
   "hide_days": 0,
   "hide_seconds": 0,
   "idx": 53,
   "ignore_user_permissions": 0,
   "ignore_xss_filter": 0,
   "in_global_search": 0,
   "in_list_view": 0,
   "in_preview": 0,
   "in_standard_filter": 0,
   "insert_after": "customer_gstin",
   "label": "Place of Supply",
   "length": 0,
   "mandatory_depends_on": null,
   "modified": "2019-11-06 17:05:05.071937",
   "modified_by": "Administrator",
   "name": "Sales Order-place_of_supply",
   "no_copy": 0,
   "non_negative": 0,
   "options": null,
   "owner": "Administrator",
   "parent": null,
   "parentfield": null,
   "parenttype": null,
   "permlevel": 0,
   "precision": "",
   "print_hide": 1,
   "print_hide_if_no_value": 0,
   "print_width": null,
   "read_only": 0,
   "read_only_depends_on": null,
   "report_hide": 0,
   "reqd": 0,
   "search_index": 0,
   "translatable": 1,
   "unique": 0,
   "width": null
  },
  {
   "_assign": null,
   "_comments": null,
   "_liked_by": null,
   "_user_tags": null,
   "allow_in_quick_entry": 0,
   "allow_on_submit": 0,
   "bold": 0,
   "collapsible": 0,
   "collapsible_depends_on": null,
   "columns": 0,
   "creation": "2019-12-03 20:10:19.196428",
   "default": null,
   "depends_on": null,
   "description": null,
   "docstatus": 0,
   "dt": "Sales Order",
   "fetch_from": "company_address.gstin",
   "fetch_if_empty": 0,
   "fieldname": "company_gstin",
   "fieldtype": "Data",
   "hidden": 0,
   "hide_border": 0,
   "hide_days": 0,
   "hide_seconds": 0,
   "idx": 47,
   "ignore_user_permissions": 0,
   "ignore_xss_filter": 0,
   "in_global_search": 0,
   "in_list_view": 0,
   "in_preview": 0,
   "in_standard_filter": 0,
   "insert_after": "company_address",
   "label": "Company GSTIN",
   "length": 0,
   "mandatory_depends_on": null,
   "modified": "2019-11-06 17:05:05.531587",
   "modified_by": "Administrator",
   "name": "Sales Order-company_gstin",
   "no_copy": 0,
   "non_negative": 0,
   "options": null,
   "owner": "Administrator",
   "parent": null,
   "parentfield": null,
   "parenttype": null,
   "permlevel": 0,
   "precision": "",
   "print_hide": 1,
   "print_hide_if_no_value": 0,
   "print_width": null,
   "read_only": 0,
   "read_only_depends_on": null,
   "report_hide": 0,
   "reqd": 0,
   "search_index": 0,
   "translatable": 1,
   "unique": 0,
   "width": null
  },
  {
   "_assign": null,
   "_comments": null,
   "_liked_by": null,
   "_user_tags": null,
   "allow_in_quick_entry": 0,
   "allow_on_submit": 0,
   "bold": 0,
   "collapsible": 0,
   "collapsible_depends_on": null,
   "columns": 0,
   "creation": "2020-01-08 13:39:40.134829",
   "default": null,
   "depends_on": null,
   "description": null,
   "docstatus": 0,
   "dt": "Sales Order",
   "fetch_from": null,
   "fetch_if_empty": 0,
   "fieldname": "get_history",
   "fieldtype": "Button",
   "hidden": 0,
   "hide_border": 0,
   "hide_days": 0,
   "hide_seconds": 0,
   "idx": 73,
   "ignore_user_permissions": 0,
   "ignore_xss_filter": 0,
   "in_global_search": 0,
   "in_list_view": 0,
   "in_preview": 0,
   "in_standard_filter": 0,
   "insert_after": "items",
   "label": "Get History",
   "length": 0,
   "mandatory_depends_on": null,
   "modified": "2020-01-08 13:39:40.134829",
   "modified_by": "gurshish@dhupargroup.com",
   "name": "Sales Order-get_history",
   "no_copy": 0,
   "non_negative": 0,
   "options": null,
   "owner": "gurshish@dhupargroup.com",
   "parent": null,
   "parentfield": null,
   "parenttype": null,
   "permlevel": 0,
   "precision": "",
   "print_hide": 0,
   "print_hide_if_no_value": 0,
   "print_width": null,
   "read_only": 0,
   "read_only_depends_on": null,
   "report_hide": 0,
   "reqd": 0,
   "search_index": 0,
   "translatable": 0,
   "unique": 0,
   "width": null
  },
  {
   "_assign": null,
   "_comments": null,
   "_liked_by": null,
   "_user_tags": null,
   "allow_in_quick_entry": 0,
   "allow_on_submit": 0,
   "bold": 0,
   "collapsible": 0,
   "collapsible_depends_on": null,
   "columns": 0,
   "creation": "2020-02-01 15:42:22.250747",
   "default": null,
   "depends_on": null,
   "description": null,
   "docstatus": 0,
   "dt": "Sales Order",
   "fetch_from": "customer_address.email_id",
   "fetch_if_empty": 0,
   "fieldname": "email_address",
   "fieldtype": "Data",
   "hidden": 0,
   "hide_border": 0,
   "hide_days": 0,
   "hide_seconds": 0,
   "idx": 39,
   "ignore_user_permissions": 0,
   "ignore_xss_filter": 0,
   "in_global_search": 0,
   "in_list_view": 0,
   "in_preview": 0,
   "in_standard_filter": 0,
   "insert_after": "address_display",
   "label": "Email Address",
   "length": 0,
   "mandatory_depends_on": null,
   "modified": "2020-02-01 15:42:22.250747",
   "modified_by": "gurshish@dhupargroup.com",
   "name": "Sales Order-email_address",
   "no_copy": 0,
   "non_negative": 0,
   "options": "Email",
   "owner": "gurshish@dhupargroup.com",
   "parent": null,
   "parentfield": null,
   "parenttype": null,
   "permlevel": 0,
   "precision": "",
   "print_hide": 0,
   "print_hide_if_no_value": 0,
   "print_width": null,
   "read_only": 0,
   "read_only_depends_on": null,
   "report_hide": 0,
   "reqd": 0,
   "search_index": 0,
   "translatable": 1,
   "unique": 0,
   "width": null
  },
  {
   "_assign": null,
   "_comments": null,
   "_liked_by": null,
   "_user_tags": null,
   "allow_in_quick_entry": 0,
   "allow_on_submit": 1,
   "bold": 0,
   "collapsible": 0,
   "collapsible_depends_on": null,
   "columns": 0,
   "creation": "2020-03-17 17:24:21.893238",
   "default": null,
   "depends_on": null,
   "description": null,
   "docstatus": 0,
   "dt": "Sales Order",
   "fetch_from": null,
   "fetch_if_empty": 0,
   "fieldname": "workflow_state",
   "fieldtype": "Link",
   "hidden": 1,
   "hide_border": 0,
   "hide_days": 0,
   "hide_seconds": 0,
   "idx": 1,
   "ignore_user_permissions": 0,
   "ignore_xss_filter": 0,
   "in_global_search": 0,
   "in_list_view": 1,
   "in_preview": 0,
   "in_standard_filter": 0,
   "insert_after": null,
   "label": "Workflow State",
   "length": 0,
   "mandatory_depends_on": null,
   "modified": "2020-03-17 17:24:21.893238",
   "modified_by": "gurshish@dhupargroup.com",
   "name": "Sales Order-workflow_state",
   "no_copy": 1,
   "non_negative": 0,
   "options": "Workflow State",
   "owner": "Administrator",
   "parent": null,
   "parentfield": null,
   "parenttype": null,
   "permlevel": 0,
   "precision": "",
   "print_hide": 0,
   "print_hide_if_no_value": 0,
   "print_width": null,
   "read_only": 0,
   "read_only_depends_on": null,
   "report_hide": 0,
   "reqd": 0,
   "search_index": 0,
   "translatable": 0,
   "unique": 0,
   "width": null
  },
  {
   "_assign": null,
   "_comments": null,
   "_liked_by": null,
   "_user_tags": null,
   "allow_in_quick_entry": 0,
   "allow_on_submit": 0,
   "bold": 0,
   "collapsible": 0,
   "collapsible_depends_on": null,
   "columns": 0,
   "creation": "2020-09-10 16:27:20.157846",
   "default": null,
   "depends_on": null,
   "description": null,
   "docstatus": 0,
   "dt": "Sales Order",
   "fetch_from": null,
   "fetch_if_empty": 0,
   "fieldname": "payment_terms_check",
   "fieldtype": "Check",
   "hidden": 0,
   "hide_border": 0,
   "hide_days": 0,
   "hide_seconds": 0,
   "idx": 125,
   "ignore_user_permissions": 0,
   "ignore_xss_filter": 0,
   "in_global_search": 0,
   "in_list_view": 0,
   "in_preview": 0,
   "in_standard_filter": 0,
   "insert_after": "payment_terms_template",
   "label": "Payment Terms Check",
   "length": 0,
   "mandatory_depends_on": null,
   "modified": "2020-09-10 16:27:20.157846",
   "modified_by": "gurshish@dhupargroup.com",
   "name": "Sales Order-payment_terms_check",
   "no_copy": 0,
   "non_negative": 0,
   "options": null,
   "owner": "gurshish@dhupargroup.com",
   "parent": null,
   "parentfield": null,
   "parenttype": null,
   "permlevel": 0,
   "precision": "",
   "print_hide": 0,
   "print_hide_if_no_value": 0,
   "print_width": null,
   "read_only": 0,
   "read_only_depends_on": null,
   "report_hide": 0,
   "reqd": 1,
   "search_index": 0,
   "translatable": 0,
   "unique": 0,
   "width": null
  },
  {
   "_assign": null,
   "_comments": null,
   "_liked_by": null,
   "_user_tags": null,
   "allow_in_quick_entry": 0,
   "allow_on_submit": 0,
   "bold": 0,
   "collapsible": 0,
   "collapsible_depends_on": null,
   "columns": 0,
   "creation": "2020-09-10 16:59:04.302563",
   "default": null,
   "depends_on": null,
   "description": null,
   "docstatus": 0,
   "dt": "Sales Order",
   "fetch_from": null,
   "fetch_if_empty": 0,
   "fieldname": "billing_address_check",
   "fieldtype": "Check",
   "hidden": 0,
   "hide_border": 0,
   "hide_days": 0,
   "hide_seconds": 0,
   "idx": 49,
   "ignore_user_permissions": 0,
   "ignore_xss_filter": 0,
   "in_global_search": 0,
   "in_list_view": 0,
   "in_preview": 0,
   "in_standard_filter": 0,
   "insert_after": "company_address_display",
   "label": "Billing address check",
   "length": 0,
   "mandatory_depends_on": null,
   "modified": "2020-09-10 16:59:04.302563",
   "modified_by": "gurshish@dhupargroup.com",
   "name": "Sales Order-billing_address_check",
   "no_copy": 0,
   "non_negative": 0,
   "options": null,
   "owner": "gurshish@dhupargroup.com",
   "parent": null,
   "parentfield": null,
   "parenttype": null,
   "permlevel": 0,
   "precision": "",
   "print_hide": 0,
   "print_hide_if_no_value": 0,
   "print_width": null,
   "read_only": 0,
   "read_only_depends_on": null,
   "report_hide": 0,
   "reqd": 1,
   "search_index": 0,
   "translatable": 0,
   "unique": 0,
   "width": null
  },
  {
   "_assign": null,
   "_comments": null,
   "_liked_by": null,
   "_user_tags": null,
   "allow_in_quick_entry": 0,
   "allow_on_submit": 0,
   "bold": 0,
   "collapsible": 0,
   "collapsible_depends_on": null,
   "columns": 0,
   "creation": "2020-09-10 17:01:22.813171",
   "default": null,
   "depends_on": null,
   "description": null,
   "docstatus": 0,
   "dt": "Sales Order",
   "fetch_from": null,
   "fetch_if_empty": 0,
   "fieldname": "sipping_address_check",
   "fieldtype": "Check",
   "hidden": 0,
   "hide_border": 0,
   "hide_days": 0,
   "hide_seconds": 0,
   "idx": 59,
   "ignore_user_permissions": 0,
   "ignore_xss_filter": 0,
   "in_global_search": 0,
   "in_list_view": 0,
   "in_preview": 0,
   "in_standard_filter": 0,
   "insert_after": "territory",
   "label": "Shipping Address Check",
   "length": 0,
   "mandatory_depends_on": null,
   "modified": "2020-09-10 17:01:22.813171",
   "modified_by": "gurshish@dhupargroup.com",
   "name": "Sales Order-sipping_address_check",
   "no_copy": 0,
   "non_negative": 0,
   "options": null,
   "owner": "gurshish@dhupargroup.com",
   "parent": null,
   "parentfield": null,
   "parenttype": null,
   "permlevel": 0,
   "precision": "",
   "print_hide": 0,
   "print_hide_if_no_value": 0,
   "print_width": null,
   "read_only": 0,
   "read_only_depends_on": null,
   "report_hide": 0,
   "reqd": 1,
   "search_index": 0,
   "translatable": 0,
   "unique": 0,
   "width": null
  },
  {
   "_assign": null,
   "_comments": null,
   "_liked_by": null,
   "_user_tags": null,
   "allow_in_quick_entry": 0,
   "allow_on_submit": 1,
   "bold": 0,
   "collapsible": 0,
   "collapsible_depends_on": null,
   "columns": 0,
   "creation": "2020-10-06 16:59:37.653429",
   "default": "Regular",
   "depends_on": null,
   "description": null,
   "docstatus": 0,
   "dt": "Sales Order",
   "fetch_from": null,
   "fetch_if_empty": 0,
   "fieldname": "is_scheduled_order",
   "fieldtype": "Select",
   "hidden": 0,
   "hide_border": 0,
   "hide_days": 0,
   "hide_seconds": 0,
   "idx": 24,
   "ignore_user_permissions": 0,
   "ignore_xss_filter": 0,
   "in_global_search": 0,
   "in_list_view": 0,
   "in_preview": 0,
   "in_standard_filter": 0,
   "insert_after": "po_date",
   "label": "Is Scheduled Order",
   "length": 0,
   "mandatory_depends_on": null,
   "modified": "2020-10-06 16:59:37.653429",
   "modified_by": "Administrator",
   "name": "Sales Order-is_scheduled_order",
   "no_copy": 0,
   "non_negative": 0,
   "options": "\nRegular\nSchedule\nContract",
   "owner": "Administrator",
   "parent": null,
   "parentfield": null,
   "parenttype": null,
   "permlevel": 0,
   "precision": "",
   "print_hide": 0,
   "print_hide_if_no_value": 0,
   "print_width": null,
   "read_only": 0,
   "read_only_depends_on": null,
   "report_hide": 0,
   "reqd": 1,
   "search_index": 0,
   "translatable": 0,
   "unique": 0,
   "width": null
  },
  {
   "_assign": null,
   "_comments": null,
   "_liked_by": null,
   "_user_tags": null,
   "allow_in_quick_entry": 0,
   "allow_on_submit": 0,
   "bold": 0,
   "collapsible": 0,
   "collapsible_depends_on": null,
   "columns": 0,
   "creation": "2020-10-15 17:15:54.287970",
   "default": null,
   "depends_on": null,
   "description": null,
   "docstatus": 0,
   "dt": "Sales Order",
   "fetch_from": null,
   "fetch_if_empty": 0,
   "fieldname": "transport_type",
   "fieldtype": "Select",
   "hidden": 0,
   "hide_border": 0,
   "hide_days": 0,
   "hide_seconds": 0,
   "idx": 10,
   "ignore_user_permissions": 0,
   "ignore_xss_filter": 0,
   "in_global_search": 0,
   "in_list_view": 0,
   "in_preview": 0,
   "in_standard_filter": 0,
   "insert_after": "customer_name",
   "label": "Transport Type",
   "length": 0,
   "mandatory_depends_on": null,
   "modified": "2020-10-15 17:15:54.287970",
   "modified_by": "gurshish@dhupargroup.com",
   "name": "Sales Order-transport_type",
   "no_copy": 0,
   "non_negative": 0,
   "options": "Paid\nTo Pay\nAdd on Invoice",
   "owner": "gurshish@dhupargroup.com",
   "parent": null,
   "parentfield": null,
   "parenttype": null,
   "permlevel": 0,
   "precision": "",
   "print_hide": 0,
   "print_hide_if_no_value": 0,
   "print_width": null,
   "read_only": 0,
   "read_only_depends_on": null,
   "report_hide": 0,
   "reqd": 0,
   "search_index": 0,
   "translatable": 1,
   "unique": 0,
   "width": null
  },
  {
   "_assign": null,
   "_comments": null,
   "_liked_by": null,
   "_user_tags": null,
   "allow_in_quick_entry": 0,
   "allow_on_submit": 0,
   "bold": 0,
   "collapsible": 0,
   "collapsible_depends_on": null,
   "columns": 0,
   "creation": "2020-10-15 17:17:15.114955",
   "default": "0",
   "depends_on": null,
   "description": null,
   "docstatus": 0,
   "dt": "Sales Order",
   "fetch_from": null,
   "fetch_if_empty": 0,
   "fieldname": "packing_and_forwarding",
   "fieldtype": "Data",
   "hidden": 0,
   "hide_border": 0,
   "hide_days": 0,
   "hide_seconds": 0,
   "idx": 11,
   "ignore_user_permissions": 0,
   "ignore_xss_filter": 0,
   "in_global_search": 0,
   "in_list_view": 0,
   "in_preview": 0,
   "in_standard_filter": 0,
   "insert_after": "transport_type",
   "label": "Packing and Forwarding",
   "length": 0,
   "mandatory_depends_on": null,
   "modified": "2020-10-15 17:17:15.114955",
   "modified_by": "gurshish@dhupargroup.com",
   "name": "Sales Order-packing_and_forwarding",
   "no_copy": 0,
   "non_negative": 0,
   "options": null,
   "owner": "gurshish@dhupargroup.com",
   "parent": null,
   "parentfield": null,
   "parenttype": null,
   "permlevel": 0,
   "precision": "",
   "print_hide": 0,
   "print_hide_if_no_value": 0,
   "print_width": null,
   "read_only": 0,
   "read_only_depends_on": null,
   "report_hide": 0,
   "reqd": 0,
   "search_index": 0,
   "translatable": 1,
   "unique": 0,
   "width": null
  },
  {
   "_assign": null,
   "_comments": null,
   "_liked_by": null,
   "_user_tags": null,
   "allow_in_quick_entry": 0,
   "allow_on_submit": 1,
   "bold": 0,
   "collapsible": 0,
   "collapsible_depends_on": null,
   "columns": 0,
   "creation": "2020-10-29 15:52:29.339410",
   "default": null,
   "depends_on": null,
   "description": null,
   "docstatus": 0,
   "dt": "Sales Order",
   "fetch_from": null,
   "fetch_if_empty": 0,
   "fieldname": "branch",
   "fieldtype": "Link",
   "hidden": 0,
   "hide_border": 0,
   "hide_days": 0,
   "hide_seconds": 0,
   "idx": 12,
   "ignore_user_permissions": 1,
   "ignore_xss_filter": 0,
   "in_global_search": 0,
   "in_list_view": 0,
   "in_preview": 0,
   "in_standard_filter": 0,
   "insert_after": "packing_and_forwarding",
   "label": "Branch",
   "length": 0,
   "mandatory_depends_on": null,
   "modified": "2020-10-29 15:52:29.339410",
   "modified_by": "gurshish@dhupargroup.com",
   "name": "Sales Order-branch",
   "no_copy": 0,
   "non_negative": 0,
   "options": "Branch",
   "owner": "gurshish@dhupargroup.com",
   "parent": null,
   "parentfield": null,
   "parenttype": null,
   "permlevel": 0,
   "precision": "",
   "print_hide": 0,
   "print_hide_if_no_value": 0,
   "print_width": null,
   "read_only": 0,
   "read_only_depends_on": null,
   "report_hide": 0,
   "reqd": 0,
   "search_index": 0,
   "translatable": 0,
   "unique": 0,
   "width": null
  },
  {
   "_assign": null,
   "_comments": null,
   "_liked_by": null,
   "_user_tags": null,
   "allow_in_quick_entry": 0,
   "allow_on_submit": 1,
   "bold": 0,
   "collapsible": 0,
   "collapsible_depends_on": null,
   "columns": 0,
   "creation": "2022-01-13 10:48:24.000565",
   "default": null,
   "depends_on": null,
   "description": null,
   "docstatus": 0,
   "dt": "Sales Order",
   "fetch_from": null,
   "fetch_if_empty": 0,
   "fieldname": "customer_contact_person",
   "fieldtype": "Data",
   "hidden": 0,
   "hide_border": 0,
   "hide_days": 0,
   "hide_seconds": 0,
   "idx": 40,
   "ignore_user_permissions": 0,
   "ignore_xss_filter": 0,
   "in_global_search": 0,
   "in_list_view": 0,
   "in_preview": 0,
   "in_standard_filter": 0,
   "insert_after": "email_address",
   "label": "Customer Contact Person Number",
   "length": 0,
   "mandatory_depends_on": null,
   "modified": "2022-01-13 10:48:24.000565",
   "modified_by": "gurshish@dhupargroup.com",
   "name": "Sales Order-customer_contact_person",
   "no_copy": 0,
   "non_negative": 0,
   "options": null,
   "owner": "gurshish@dhupargroup.com",
   "parent": null,
   "parentfield": null,
   "parenttype": null,
   "permlevel": 0,
   "precision": "",
   "print_hide": 0,
   "print_hide_if_no_value": 0,
   "print_width": null,
   "read_only": 0,
   "read_only_depends_on": null,
   "report_hide": 0,
   "reqd": 1,
   "search_index": 0,
   "translatable": 1,
   "unique": 0,
   "width": null
  },
  {
   "_assign": null,
   "_comments": null,
   "_liked_by": null,
   "_user_tags": null,
   "allow_in_quick_entry": 0,
   "allow_on_submit": 0,
   "bold": 0,
   "collapsible": 0,
   "collapsible_depends_on": null,
   "columns": 0,
   "creation": "2022-03-31 14:12:06.050564",
   "default": null,
   "depends_on": "",
   "description": null,
   "docstatus": 0,
   "dt": "Sales Order",
   "fetch_from": null,
   "fetch_if_empty": 0,
   "fieldname": "total_outstanding",
   "fieldtype": "Data",
   "hidden": 0,
   "hide_border": 0,
   "hide_days": 0,
   "hide_seconds": 0,
   "idx": 28,
   "ignore_user_permissions": 0,
   "ignore_xss_filter": 0,
   "in_global_search": 0,
   "in_list_view": 0,
   "in_preview": 0,
   "in_standard_filter": 0,
   "insert_after": "section_break_16",
   "label": "Total Outstanding",
   "length": 0,
   "mandatory_depends_on": null,
   "modified": "2022-03-31 14:12:06.050564",
   "modified_by": "gurshish@dhupargroup.com",
   "name": "Sales Order-total_outstanding",
   "no_copy": 0,
   "non_negative": 0,
   "options": null,
   "owner": "gurshish@dhupargroup.com",
   "parent": null,
   "parentfield": null,
   "parenttype": null,
   "permlevel": 0,
   "precision": "",
   "print_hide": 0,
   "print_hide_if_no_value": 0,
   "print_width": null,
   "read_only": 1,
   "read_only_depends_on": null,
   "report_hide": 0,
   "reqd": 0,
   "search_index": 0,
   "translatable": 1,
   "unique": 0,
   "width": null
  },
  {
   "_assign": null,
   "_comments": null,
   "_liked_by": null,
   "_user_tags": null,
   "allow_in_quick_entry": 0,
   "allow_on_submit": 0,
   "bold": 0,
   "collapsible": 0,
   "collapsible_depends_on": null,
   "columns": 0,
   "creation": "2022-03-31 14:15:18.865002",
   "default": null,
   "depends_on": null,
   "description": null,
   "docstatus": 0,
   "dt": "Sales Order",
   "fetch_from": null,
   "fetch_if_empty": 0,
   "fieldname": "ageing",
   "fieldtype": "HTML",
   "hidden": 0,
   "hide_border": 0,
   "hide_days": 0,
   "hide_seconds": 0,
   "idx": 30,
   "ignore_user_permissions": 0,
   "ignore_xss_filter": 0,
   "in_global_search": 0,
   "in_list_view": 0,
   "in_preview": 0,
   "in_standard_filter": 0,
   "insert_after": "debtor_days",
   "label": "Ageing",
   "length": 0,
   "mandatory_depends_on": null,
   "modified": "2022-03-31 14:15:18.865002",
   "modified_by": "gurshish@dhupargroup.com",
   "name": "Sales Order-ageing",
   "no_copy": 0,
   "non_negative": 0,
   "options": null,
   "owner": "gurshish@dhupargroup.com",
   "parent": null,
   "parentfield": null,
   "parenttype": null,
   "permlevel": 0,
   "precision": "",
   "print_hide": 0,
   "print_hide_if_no_value": 0,
   "print_width": null,
   "read_only": 0,
   "read_only_depends_on": null,
   "report_hide": 0,
   "reqd": 0,
   "search_index": 0,
   "translatable": 0,
   "unique": 0,
   "width": null
  },
  {
   "_assign": null,
   "_comments": null,
   "_liked_by": null,
   "_user_tags": null,
   "allow_in_quick_entry": 0,
   "allow_on_submit": 0,
   "bold": 0,
   "collapsible": 0,
   "collapsible_depends_on": null,
   "columns": 0,
   "creation": "2022-05-25 12:46:35.517787",
   "default": null,
   "depends_on": null,
   "description": null,
   "docstatus": 0,
   "dt": "Sales Order",
   "fetch_from": "customer.debtor_days",
   "fetch_if_empty": 0,
   "fieldname": "debtor_days",
   "fieldtype": "Data",
   "hidden": 0,
   "hide_border": 0,
   "hide_days": 0,
   "hide_seconds": 0,
   "idx": 29,
   "ignore_user_permissions": 0,
   "ignore_xss_filter": 0,
   "in_global_search": 0,
   "in_list_view": 0,
   "in_preview": 0,
   "in_standard_filter": 0,
   "insert_after": "total_outstanding",
   "label": "Debtor Days",
   "length": 0,
   "mandatory_depends_on": null,
   "modified": "2022-05-25 12:46:35.517787",
   "modified_by": "gurshish@dhupargroup.com",
   "name": "Sales Order-debtor_days",
   "no_copy": 0,
   "non_negative": 0,
   "options": null,
   "owner": "gurshish@dhupargroup.com",
   "parent": null,
   "parentfield": null,
   "parenttype": null,
   "permlevel": 0,
   "precision": "",
   "print_hide": 0,
   "print_hide_if_no_value": 0,
   "print_width": null,
   "read_only": 1,
   "read_only_depends_on": null,
   "report_hide": 0,
   "reqd": 0,
   "search_index": 0,
   "translatable": 1,
   "unique": 0,
   "width": null
  },
  {
   "_assign": null,
   "_comments": null,
   "_liked_by": null,
   "_user_tags": null,
   "allow_in_quick_entry": 0,
   "allow_on_submit": 1,
   "bold": 0,
   "collapsible": 0,
   "collapsible_depends_on": null,
   "columns": 0,
   "creation": "2022-07-18 12:55:37.465828",
   "default": null,
   "depends_on": null,
   "description": null,
   "docstatus": 0,
   "dt": "Sales Order",
   "fetch_from": "customer.sales_person",
   "fetch_if_empty": 1,
   "fieldname": "sales_person",
   "fieldtype": "Link",
   "hidden": 0,
   "hide_border": 0,
   "hide_days": 0,
   "hide_seconds": 0,
   "idx": 13,
   "ignore_user_permissions": 0,
   "ignore_xss_filter": 0,
   "in_global_search": 0,
   "in_list_view": 0,
   "in_preview": 0,
   "in_standard_filter": 0,
   "insert_after": "branch",
   "label": "Sales Person",
   "length": 0,
   "mandatory_depends_on": null,
   "modified": "2022-07-18 12:55:37.465828",
   "modified_by": "gurshish@dhupargroup.com",
   "name": "Sales Order-sales_person",
   "no_copy": 0,
   "non_negative": 0,
   "options": "Sales Person",
   "owner": "gurshish@dhupargroup.com",
   "parent": null,
   "parentfield": null,
   "parenttype": null,
   "permlevel": 0,
   "precision": "",
   "print_hide": 0,
   "print_hide_if_no_value": 0,
   "print_width": null,
   "read_only": 0,
   "read_only_depends_on": null,
   "report_hide": 0,
   "reqd": 1,
   "search_index": 0,
   "translatable": 0,
   "unique": 0,
   "width": null
  },
  {
   "_assign": null,
   "_comments": null,
   "_liked_by": null,
   "_user_tags": null,
   "allow_in_quick_entry": 0,
   "allow_on_submit": 0,
   "bold": 0,
   "collapsible": 0,
   "collapsible_depends_on": null,
   "columns": 0,
   "creation": "2023-01-03 17:04:40.943846",
   "default": null,
   "depends_on": null,
   "description": null,
   "docstatus": 0,
   "dt": "Sales Order",
   "fetch_from": null,
   "fetch_if_empty": 0,
   "fieldname": "get_stock",
   "fieldtype": "Button",
   "hidden": 0,
   "hide_border": 0,
   "hide_days": 0,
   "hide_seconds": 0,
   "idx": 74,
   "ignore_user_permissions": 0,
   "ignore_xss_filter": 0,
   "in_global_search": 0,
   "in_list_view": 0,
   "in_preview": 0,
   "in_standard_filter": 0,
   "insert_after": "get_history",
   "label": "Get Stock",
   "length": 0,
   "mandatory_depends_on": null,
   "modified": "2023-01-03 17:04:40.943846",
   "modified_by": "ajaypatole@dhuparbrothers.com",
   "name": "Sales Order-get_stock",
   "no_copy": 0,
   "non_negative": 0,
   "options": null,
   "owner": "ajaypatole@dhuparbrothers.com",
   "parent": null,
   "parentfield": null,
   "parenttype": null,
   "permlevel": 0,
   "precision": "",
   "print_hide": 0,
   "print_hide_if_no_value": 0,
   "print_width": null,
   "read_only": 0,
   "read_only_depends_on": null,
   "report_hide": 0,
   "reqd": 0,
   "search_index": 0,
   "translatable": 0,
   "unique": 0,
   "width": null
  },
  {
   "_assign": null,
   "_comments": null,
   "_liked_by": null,
   "_user_tags": null,
   "allow_in_quick_entry": 0,
   "allow_on_submit": 0,
   "bold": 0,
   "collapsible": 0,
   "collapsible_depends_on": null,
   "columns": 0,
   "creation": "2023-02-02 21:56:24.915431",
   "default": null,
   "depends_on": null,
   "description": null,
   "docstatus": 0,
   "dt": "Sales Order",
   "fetch_from": null,
   "fetch_if_empty": 0,
   "fieldname": "billing_email_id",
   "fieldtype": "Data",
   "hidden": 0,
   "hide_border": 0,
   "hide_days": 0,
   "hide_seconds": 0,
   "idx": 25,
   "ignore_user_permissions": 0,
   "ignore_xss_filter": 0,
   "in_global_search": 0,
   "in_list_view": 0,
   "in_preview": 0,
   "in_standard_filter": 0,
   "insert_after": "is_scheduled_order",
   "label": "Billing Email Id",
   "length": 0,
   "mandatory_depends_on": null,
   "modified": "2023-02-02 21:56:24.915431",
   "modified_by": "ajaypatole@dhuparbrothers.com",
   "name": "Sales Order-billing_email_id",
   "no_copy": 0,
   "non_negative": 0,
   "options": null,
   "owner": "ajaypatole@dhuparbrothers.com",
   "parent": null,
   "parentfield": null,
   "parenttype": null,
   "permlevel": 0,
   "precision": "",
   "print_hide": 0,
   "print_hide_if_no_value": 0,
   "print_width": null,
   "read_only": 0,
   "read_only_depends_on": null,
   "report_hide": 0,
   "reqd": 0,
   "search_index": 0,
   "translatable": 1,
   "unique": 0,
   "width": null
  },
  {
   "_assign": null,
   "_comments": null,
   "_liked_by": null,
   "_user_tags": null,
   "allow_in_quick_entry": 0,
   "allow_on_submit": 0,
   "bold": 0,
   "collapsible": 0,
   "collapsible_depends_on": null,
   "columns": 0,
   "creation": "2023-02-25 12:05:40.344440",
   "default": null,
   "depends_on": "eval:doc.customer_name==\"Cash Sale\"",
   "description": null,
   "docstatus": 0,
   "dt": "Sales Order",
   "fetch_from": null,
   "fetch_if_empty": 0,
   "fieldname": "cash_customer_name",
   "fieldtype": "Text",
   "hidden": 0,
   "hide_border": 0,
   "hide_days": 0,
   "hide_seconds": 0,
   "idx": 14,
   "ignore_user_permissions": 0,
   "ignore_xss_filter": 0,
   "in_global_search": 0,
   "in_list_view": 0,
   "in_preview": 0,
   "in_standard_filter": 0,
   "insert_after": "sales_person",
   "label": "Cash Customer Name",
   "length": 0,
   "mandatory_depends_on": null,
   "modified": "2023-02-25 12:05:40.344440",
   "modified_by": "ajaypatole@dhuparbrothers.com",
   "name": "Sales Order-cash_customer_name",
   "no_copy": 0,
   "non_negative": 0,
   "options": null,
   "owner": "ajaypatole@dhuparbrothers.com",
   "parent": null,
   "parentfield": null,
   "parenttype": null,
   "permlevel": 0,
   "precision": "",
   "print_hide": 0,
   "print_hide_if_no_value": 0,
   "print_width": null,
   "read_only": 0,
   "read_only_depends_on": null,
   "report_hide": 0,
   "reqd": 0,
   "search_index": 0,
   "translatable": 1,
   "unique": 0,
   "width": null
  },
  {
   "_assign": null,
   "_comments": null,
   "_liked_by": null,
   "_user_tags": null,
   "allow_in_quick_entry": 0,
   "allow_on_submit": 0,
   "bold": 0,
   "collapsible": 0,
   "collapsible_depends_on": null,
   "columns": 0,
   "creation": "2023-06-30 12:54:16.284460",
   "default": null,
   "depends_on": null,
   "description": null,
   "docstatus": 0,
   "dt": "Sales Order",
   "fetch_from": null,
   "fetch_if_empty": 0,
   "fieldname": "shopify_order_id",
   "fieldtype": "Data",
   "hidden": 0,
   "hide_border": 0,
   "hide_days": 0,
   "hide_seconds": 0,
   "idx": 5,
   "ignore_user_permissions": 0,
   "ignore_xss_filter": 0,
   "in_global_search": 0,
   "in_list_view": 0,
   "in_preview": 0,
   "in_standard_filter": 0,
   "insert_after": "title",
   "label": "Shopify Order Id",
   "length": 0,
   "mandatory_depends_on": null,
   "modified": "2023-07-01 13:25:57.919549",
   "modified_by": "ajaypatole@dhuparbrothers.com",
   "name": "Sales Order-shopify_order_id",
   "no_copy": 0,
   "non_negative": 0,
   "options": null,
   "owner": "Administrator",
   "parent": null,
   "parentfield": null,
   "parenttype": null,
   "permlevel": 0,
   "precision": "",
   "print_hide": 1,
   "print_hide_if_no_value": 0,
   "print_width": null,
   "read_only": 1,
   "read_only_depends_on": null,
   "report_hide": 0,
   "reqd": 0,
   "search_index": 0,
   "translatable": 1,
   "unique": 0,
   "width": null
  },
  {
   "_assign": null,
   "_comments": null,
   "_liked_by": null,
   "_user_tags": null,
   "allow_in_quick_entry": 0,
   "allow_on_submit": 0,
   "bold": 0,
   "collapsible": 0,
   "collapsible_depends_on": null,
   "columns": 0,
   "creation": "2023-06-30 12:54:16.723048",
   "default": null,
   "depends_on": null,
   "description": null,
   "docstatus": 0,
   "dt": "Sales Order",
   "fetch_from": null,
   "fetch_if_empty": 0,
   "fieldname": "shopify_order_number",
   "fieldtype": "Data",
   "hidden": 0,
   "hide_border": 0,
   "hide_days": 0,
   "hide_seconds": 0,
   "idx": 6,
   "ignore_user_permissions": 0,
   "ignore_xss_filter": 0,
   "in_global_search": 0,
   "in_list_view": 0,
   "in_preview": 0,
   "in_standard_filter": 0,
   "insert_after": "shopify_order_id",
   "label": "Shopify Order Number",
   "length": 0,
   "mandatory_depends_on": null,
   "modified": "2023-07-01 13:25:58.277958",
   "modified_by": "ajaypatole@dhuparbrothers.com",
   "name": "Sales Order-shopify_order_number",
   "no_copy": 0,
   "non_negative": 0,
   "options": null,
   "owner": "Administrator",
   "parent": null,
   "parentfield": null,
   "parenttype": null,
   "permlevel": 0,
   "precision": "",
   "print_hide": 1,
   "print_hide_if_no_value": 0,
   "print_width": null,
   "read_only": 1,
   "read_only_depends_on": null,
   "report_hide": 0,
   "reqd": 0,
   "search_index": 0,
   "translatable": 1,
   "unique": 0,
   "width": null
  }
 ],
 "custom_perms": [
  {
   "_assign": null,
   "_comments": null,
   "_liked_by": null,
   "_user_tags": null,
   "amend": 0,
   "apply_user_permissions": 0,
   "cancel": 0,
   "create": 0,
   "creation": "2013-06-18 12:39:59",
   "delete": 0,
   "docstatus": 0,
   "email": 0,
   "export": 0,
   "idx": 6,
   "if_owner": 0,
   "import": 0,
   "modified": "2018-03-28 18:14:29.790367",
   "modified_by": "rohit_rakesh@hotmail.com",
   "name": "cba5e381ac",
   "owner": "Administrator",
   "parent": "Sales Order",
   "parentfield": "permissions",
   "parenttype": "DocType",
   "permlevel": 1,
   "print": 0,
   "read": 1,
   "report": 0,
   "role": "Sales Manager",
   "select": 0,
   "set_user_permissions": 0,
   "share": 0,
   "submit": 0,
   "user_permission_doctypes": null,
   "write": 1
  },
  {
   "_assign": null,
   "_comments": null,
   "_liked_by": null,
   "_user_tags": null,
   "amend": 1,
   "apply_user_permissions": 0,
   "cancel": 1,
   "create": 1,
   "creation": "2013-06-18 12:39:59",
   "delete": 1,
   "docstatus": 0,
   "email": 1,
   "export": 0,
   "idx": 1,
   "if_owner": 0,
   "import": 0,
   "modified": "2018-03-28 18:14:29.807669",
   "modified_by": "rohit_rakesh@hotmail.com",
   "name": "7b540f4047",
   "owner": "Administrator",
   "parent": "Sales Order",
   "parentfield": "permissions",
   "parenttype": "DocType",
   "permlevel": 0,
   "print": 1,
   "read": 1,
   "report": 1,
   "role": "Sales User",
   "select": 0,
   "set_user_permissions": 0,
   "share": 1,
   "submit": 1,
   "user_permission_doctypes": null,
   "write": 1
  },
  {
   "_assign": null,
   "_comments": null,
   "_liked_by": null,
   "_user_tags": null,
   "amend": 1,
   "apply_user_permissions": 0,
   "cancel": 1,
   "create": 1,
   "creation": "2013-06-18 12:39:59",
   "delete": 1,
   "docstatus": 0,
   "email": 1,
   "export": 0,
   "idx": 3,
   "if_owner": 0,
   "import": 0,
   "modified": "2018-03-28 18:14:29.820856",
   "modified_by": "rohit_rakesh@hotmail.com",
   "name": "cb53f13bc3",
   "owner": "Administrator",
   "parent": "Sales Order",
   "parentfield": "permissions",
   "parenttype": "DocType",
   "permlevel": 0,
   "print": 1,
   "read": 1,
   "report": 1,
   "role": "Maintenance User",
   "select": 0,
   "set_user_permissions": 0,
   "share": 1,
   "submit": 1,
   "user_permission_doctypes": null,
   "write": 1
  },
  {
   "_assign": null,
   "_comments": null,
   "_liked_by": null,
   "_user_tags": null,
   "amend": 0,
   "apply_user_permissions": 0,
   "cancel": 0,
   "create": 0,
   "creation": "2013-06-18 12:39:59",
   "delete": 0,
   "docstatus": 0,
   "email": 1,
   "export": 0,
   "idx": 4,
   "if_owner": 0,
   "import": 0,
   "modified": "2018-03-28 18:14:29.831085",
   "modified_by": "rohit_rakesh@hotmail.com",
   "name": "5a52228447",
   "owner": "Administrator",
   "parent": "Sales Order",
   "parentfield": "permissions",
   "parenttype": "DocType",
   "permlevel": 0,
   "print": 1,
   "read": 1,
   "report": 0,
   "role": "Accounts User",
   "select": 0,
   "set_user_permissions": 0,
   "share": 0,
   "submit": 0,
   "user_permission_doctypes": null,
   "write": 0
  },
  {
   "_assign": null,
   "_comments": null,
   "_liked_by": null,
   "_user_tags": null,
   "amend": 1,
   "apply_user_permissions": 0,
   "cancel": 1,
   "create": 1,
   "creation": "2013-06-18 12:39:59",
   "delete": 1,
   "docstatus": 0,
   "email": 1,
   "export": 1,
   "idx": 2,
   "if_owner": 0,
   "import": 1,
   "modified": "2018-03-28 18:14:29.841121",
   "modified_by": "rohit_rakesh@hotmail.com",
   "name": "3b35197a92",
   "owner": "Administrator",
   "parent": "Sales Order",
   "parentfield": "permissions",
   "parenttype": "DocType",
   "permlevel": 0,
   "print": 1,
   "read": 1,
   "report": 1,
   "role": "Sales Manager",
   "select": 0,
   "set_user_permissions": 1,
   "share": 1,
   "submit": 1,
   "user_permission_doctypes": null,
   "write": 1
  },
  {
   "_assign": null,
   "_comments": null,
   "_liked_by": null,
   "_user_tags": null,
   "amend": 0,
   "apply_user_permissions": 0,
   "cancel": 0,
   "create": 0,
   "creation": "2013-06-18 12:39:59",
   "delete": 0,
   "docstatus": 0,
   "email": 0,
   "export": 1,
   "idx": 5,
   "if_owner": 0,
   "import": 0,
   "modified": "2018-03-28 18:14:29.850541",
   "modified_by": "rohit_rakesh@hotmail.com",
   "name": "53cc85a959",
   "owner": "Administrator",
   "parent": "Sales Order",
   "parentfield": "permissions",
   "parenttype": "DocType",
   "permlevel": 0,
   "print": 0,
   "read": 1,
   "report": 1,
   "role": "Stock User",
   "select": 0,
   "set_user_permissions": 0,
   "share": 0,
   "submit": 0,
   "user_permission_doctypes": null,
   "write": 0
  },
  {
   "_assign": null,
   "_comments": null,
   "_liked_by": null,
   "_user_tags": null,
   "amend": 0,
   "apply_user_permissions": 0,
   "cancel": 0,
   "create": 1,
   "creation": "2018-12-17 16:50:58.923820",
   "delete": 0,
   "docstatus": 0,
   "email": 1,
   "export": 1,
   "idx": 0,
   "if_owner": 1,
   "import": 0,
   "modified": "2018-12-17 16:50:58.923820",
   "modified_by": "gurshish@dhupargroup.com",
   "name": "9744284981",
   "owner": "gurshish@dhupargroup.com",
   "parent": "Sales Order",
   "parentfield": "permissions",
   "parenttype": "DocType",
   "permlevel": 0,
   "print": 1,
   "read": 1,
   "report": 1,
   "role": "Customer",
   "select": 0,
   "set_user_permissions": 0,
   "share": 1,
   "submit": 0,
   "user_permission_doctypes": null,
   "write": 1
  },
  {
   "_assign": null,
   "_comments": null,
   "_liked_by": null,
   "_user_tags": null,
   "amend": 0,
   "apply_user_permissions": 0,
   "cancel": 0,
   "create": 0,
   "creation": "2023-07-24 17:52:17.637901",
   "delete": 0,
   "docstatus": 0,
   "email": 0,
   "export": 1,
   "idx": 0,
   "if_owner": 0,
   "import": 0,
   "modified": "2023-07-24 17:52:17.637901",
   "modified_by": "ajaypatole@dhuparbrothers.com",
   "name": "b07750980c",
   "owner": "ajaypatole@dhuparbrothers.com",
   "parent": "Sales Order",
   "parentfield": "permissions",
   "parenttype": "DocType",
   "permlevel": 1,
   "print": 0,
   "read": 1,
   "report": 0,
   "role": "Item Manager",
   "select": 0,
   "set_user_permissions": 0,
   "share": 0,
   "submit": 0,
   "user_permission_doctypes": null,
   "write": 1
  },
  {
   "_assign": null,
   "_comments": null,
   "_liked_by": null,
   "_user_tags": null,
   "amend": 0,
   "apply_user_permissions": 0,
   "cancel": 0,
   "create": 0,
   "creation": "2023-08-04 15:29:53.116439",
   "delete": 0,
   "docstatus": 0,
   "email": 0,
   "export": 1,
   "idx": 0,
   "if_owner": 0,
   "import": 0,
   "modified": "2023-08-04 15:29:53.116439",
   "modified_by": "ajaypatole@dhuparbrothers.com",
   "name": "ac8baf1d14",
   "owner": "ajaypatole@dhuparbrothers.com",
   "parent": "Sales Order",
   "parentfield": "permissions",
   "parenttype": "DocType",
   "permlevel": 0,
   "print": 0,
   "read": 1,
   "report": 0,
   "role": "Guest",
   "select": 0,
   "set_user_permissions": 0,
   "share": 0,
   "submit": 0,
   "user_permission_doctypes": null,
   "write": 0
  }
 ],
 "doctype": "Sales Order",
 "property_setters": [
  {
   "_assign": null,
   "_comments": null,
   "_liked_by": null,
   "_user_tags": null,
   "creation": "2019-12-06 10:41:18.572640",
   "default_value": null,
   "doc_type": "Sales Order",
   "docstatus": 0,
   "doctype_or_field": "DocField",
   "field_name": "naming_series",
   "idx": 0,
   "modified": "2023-09-21 11:31:43.132533",
   "modified_by": "ajaypatole@dhuparbrothers.com",
   "name": "Sales Order-naming_series-default",
   "owner": "gurshish@dhupargroup.com",
   "parent": null,
   "parentfield": null,
   "parenttype": null,
   "property": "default",
   "property_type": "Text",
   "row_name": null,
   "value": "SO-"
  },
  {
   "_assign": null,
   "_comments": null,
   "_liked_by": null,
   "_user_tags": null,
   "creation": "2019-12-03 20:10:57.931341",
   "default_value": null,
   "doc_type": "Sales Order",
   "docstatus": 0,
   "doctype_or_field": "DocField",
   "field_name": "naming_series",
   "idx": 0,
   "modified": "2023-09-21 11:31:43.049869",
   "modified_by": "ajaypatole@dhuparbrothers.com",
   "name": "Sales Order-naming_series-options",
   "owner": "Administrator",
   "parent": null,
   "parentfield": null,
   "parenttype": null,
   "property": "options",
   "property_type": "Text",
   "row_name": null,
   "value": "SO-\nSO-C-\nSO-M-\ntest-so-"
  },
  {
   "_assign": null,
   "_comments": null,
   "_liked_by": null,
   "_user_tags": null,
   "creation": "2023-08-07 13:04:11.996571",
   "default_value": null,
   "doc_type": "Sales Order",
   "docstatus": 0,
   "doctype_or_field": "DocField",
   "field_name": "payment_schedule",
   "idx": 0,
   "modified": "2023-08-07 13:04:11.996571",
   "modified_by": "iroleashok@gmail.com",
   "name": "Sales Order-payment_schedule-print_hide",
   "owner": "iroleashok@gmail.com",
   "parent": null,
   "parentfield": null,
   "parenttype": null,
   "property": "print_hide",
   "property_type": "Check",
   "row_name": null,
   "value": "1"
  },
  {
   "_assign": null,
   "_comments": null,
   "_liked_by": null,
   "_user_tags": null,
   "creation": "2023-08-07 13:04:11.874214",
   "default_value": null,
   "doc_type": "Sales Order",
   "docstatus": 0,
   "doctype_or_field": "DocField",
   "field_name": "due_date",
   "idx": 0,
   "modified": "2023-08-07 13:04:11.874214",
   "modified_by": "iroleashok@gmail.com",
   "name": "Sales Order-due_date-print_hide",
   "owner": "iroleashok@gmail.com",
   "parent": null,
   "parentfield": null,
   "parenttype": null,
   "property": "print_hide",
   "property_type": "Check",
   "row_name": null,
   "value": "0"
  },
  {
   "_assign": null,
   "_comments": null,
   "_liked_by": null,
   "_user_tags": null,
   "creation": "2023-07-20 11:11:19.953833",
   "default_value": null,
   "doc_type": "Sales Order",
   "docstatus": 0,
   "doctype_or_field": "DocType",
   "field_name": null,
   "idx": 0,
   "modified": "2023-07-20 11:11:19.953833",
   "modified_by": "ajaypatole@dhuparbrothers.com",
   "name": "Sales Order-main-default_print_format",
   "owner": "ajaypatole@dhuparbrothers.com",
   "parent": null,
   "parentfield": null,
   "parenttype": null,
   "property": "default_print_format",
   "property_type": "Data",
   "row_name": null,
   "value": "sales order"
  },
  {
   "_assign": null,
   "_comments": null,
   "_liked_by": null,
   "_user_tags": null,
   "creation": "2020-01-14 12:07:48.527605",
   "default_value": null,
   "doc_type": "Sales Order",
   "docstatus": 0,
   "doctype_or_field": "DocType",
   "field_name": null,
   "idx": 0,
   "modified": "2020-01-14 12:07:48.527605",
   "modified_by": "gurshish@dhupargroup.com",
   "name": "Sales Order-read_only_onload",
   "owner": "gurshish@dhupargroup.com",
   "parent": null,
   "parentfield": null,
   "parenttype": null,
   "property": "read_only_onload",
   "property_type": "Check",
   "row_name": null,
   "value": null
  },
  {
   "_assign": null,
   "_comments": null,
   "_liked_by": null,
   "_user_tags": null,
   "creation": "2020-01-11 13:00:08.520855",
   "default_value": null,
   "doc_type": "Sales Order",
   "docstatus": 0,
   "doctype_or_field": "DocField",
   "field_name": "po_no",
   "idx": 0,
   "modified": "2020-01-11 13:00:08.520855",
   "modified_by": "gurshish@dhupargroup.com",
   "name": "Sales Order-po_no-reqd",
   "owner": "gurshish@dhupargroup.com",
   "parent": null,
   "parentfield": null,
   "parenttype": null,
   "property": "reqd",
   "property_type": "Check",
   "row_name": null,
   "value": "1"
  },
  {
   "_assign": null,
   "_comments": null,
   "_liked_by": null,
   "_user_tags": null,
   "creation": "2020-01-11 13:00:08.508484",
   "default_value": null,
   "doc_type": "Sales Order",
   "docstatus": 0,
   "doctype_or_field": "DocField",
   "field_name": "delivery_date",
   "idx": 0,
   "modified": "2020-01-11 13:00:08.508484",
   "modified_by": "gurshish@dhupargroup.com",
   "name": "Sales Order-delivery_date-reqd",
   "owner": "gurshish@dhupargroup.com",
   "parent": null,
   "parentfield": null,
   "parenttype": null,
   "property": "reqd",
   "property_type": "Check",
   "row_name": null,
   "value": "1"
  },
  {
   "_assign": null,
   "_comments": null,
   "_liked_by": null,
   "_user_tags": null,
   "creation": "2019-12-06 12:51:11.340990",
   "default_value": null,
   "doc_type": "Sales Order",
   "docstatus": 0,
   "doctype_or_field": "DocField",
   "field_name": "set_warehouse",
   "idx": 0,
   "modified": "2019-12-06 12:51:11.340990",
   "modified_by": "gurshish@dhupargroup.com",
   "name": "Sales Order-set_warehouse-default",
   "owner": "gurshish@dhupargroup.com",
   "parent": null,
   "parentfield": null,
   "parenttype": null,
   "property": "default",
   "property_type": "Text",
   "row_name": null,
   "value": "Wagholi - DBTPL"
  },
  {
   "_assign": null,
   "_comments": null,
   "_liked_by": null,
   "_user_tags": null,
   "creation": "2019-12-03 20:10:58.296215",
   "default_value": null,
   "doc_type": "Sales Order",
   "docstatus": 0,
   "doctype_or_field": "DocField",
   "field_name": "order_type",
   "idx": 0,
   "modified": "2019-11-12 12:24:42.089456",
   "modified_by": "Administrator",
   "name": "Sales Order-order_type-options",
   "owner": "Administrator",
   "parent": null,
   "parentfield": null,
   "parenttype": null,
   "property": "options",
   "property_type": "Text",
   "row_name": null,
   "value": "\nSales"
  },
  {
   "_assign": null,
   "_comments": null,
   "_liked_by": null,
   "_user_tags": null,
   "creation": "2019-12-03 20:10:57.827476",
   "default_value": null,
   "doc_type": "Sales Order",
   "docstatus": 0,
   "doctype_or_field": "DocField",
   "field_name": "customer",
   "idx": 0,
   "modified": "2019-10-09 19:20:29.985261",
   "modified_by": "Administrator",
   "name": "Sales Order-customer-depends_on",
   "owner": "Administrator",
   "parent": null,
   "parentfield": null,
   "parenttype": null,
   "property": "depends_on",
   "property_type": "Data",
   "row_name": null,
   "value": ""
  },
  {
   "_assign": null,
   "_comments": null,
   "_liked_by": null,
   "_user_tags": null,
   "creation": "2019-12-03 20:10:57.568011",
   "default_value": null,
   "doc_type": "Sales Order",
   "docstatus": 0,
   "doctype_or_field": "DocField",
   "field_name": "in_words",
   "idx": 0,
   "modified": "2019-09-25 12:05:27.008977",
   "modified_by": "Administrator",
   "name": "Sales Order-in_words-print_hide",
   "owner": "Administrator",
   "parent": null,
   "parentfield": null,
   "parenttype": null,
   "property": "print_hide",
   "property_type": "Check",
   "row_name": null,
   "value": "0"
  },
  {
   "_assign": null,
   "_comments": null,
   "_liked_by": null,
   "_user_tags": null,
   "creation": "2019-12-03 20:10:57.551970",
   "default_value": null,
   "doc_type": "Sales Order",
   "docstatus": 0,
   "doctype_or_field": "DocField",
   "field_name": "in_words",
   "idx": 0,
   "modified": "2019-09-25 12:05:26.797360",
   "modified_by": "Administrator",
   "name": "Sales Order-in_words-hidden",
   "owner": "Administrator",
   "parent": null,
   "parentfield": null,
   "parenttype": null,
   "property": "hidden",
   "property_type": "Check",
   "row_name": null,
   "value": "0"
  },
  {
   "_assign": null,
   "_comments": null,
   "_liked_by": null,
   "_user_tags": null,
   "creation": "2019-12-03 20:10:57.233145",
   "default_value": null,
   "doc_type": "Sales Order",
   "docstatus": 0,
   "doctype_or_field": "DocField",
   "field_name": "rounded_total",
   "idx": 0,
   "modified": "2019-09-25 12:05:21.780778",
   "modified_by": "Administrator",
   "name": "Sales Order-rounded_total-print_hide",
   "owner": "Administrator",
   "parent": null,
   "parentfield": null,
   "parenttype": null,
   "property": "print_hide",
   "property_type": "Check",
   "row_name": null,
   "value": "0"
  },
  {
   "_assign": null,
   "_comments": null,
   "_liked_by": null,
   "_user_tags": null,
   "creation": "2019-12-03 20:10:57.215012",
   "default_value": null,
   "doc_type": "Sales Order",
   "docstatus": 0,
   "doctype_or_field": "DocField",
   "field_name": "rounded_total",
   "idx": 0,
   "modified": "2019-09-25 12:05:21.623565",
   "modified_by": "Administrator",
   "name": "Sales Order-rounded_total-hidden",
   "owner": "Administrator",
   "parent": null,
   "parentfield": null,
   "parenttype": null,
   "property": "hidden",
   "property_type": "Check",
   "row_name": null,
   "value": "0"
  },
  {
   "_assign": null,
   "_comments": null,
   "_liked_by": null,
   "_user_tags": null,
   "creation": "2019-12-03 20:10:57.200464",
   "default_value": null,
   "doc_type": "Sales Order",
   "docstatus": 0,
   "doctype_or_field": "DocField",
   "field_name": "base_rounded_total",
   "idx": 0,
   "modified": "2019-09-25 12:05:21.410154",
   "modified_by": "Administrator",
   "name": "Sales Order-base_rounded_total-print_hide",
   "owner": "Administrator",
   "parent": null,
   "parentfield": null,
   "parenttype": null,
   "property": "print_hide",
   "property_type": "Check",
   "row_name": null,
   "value": "1"
  },
  {
   "_assign": null,
   "_comments": null,
   "_liked_by": null,
   "_user_tags": null,
   "creation": "2019-12-03 20:10:57.186618",
   "default_value": null,
   "doc_type": "Sales Order",
   "docstatus": 0,
   "doctype_or_field": "DocField",
   "field_name": "base_rounded_total",
   "idx": 0,
   "modified": "2019-09-25 12:05:21.244519",
   "modified_by": "Administrator",
   "name": "Sales Order-base_rounded_total-hidden",
   "owner": "Administrator",
   "parent": null,
   "parentfield": null,
   "parenttype": null,
   "property": "hidden",
   "property_type": "Check",
   "row_name": null,
   "value": "0"
  },
  {
   "_assign": null,
   "_comments": null,
   "_liked_by": null,
   "_user_tags": null,
   "creation": "2019-12-03 20:10:57.019070",
   "default_value": null,
   "doc_type": "Sales Order",
   "docstatus": 0,
   "doctype_or_field": "DocField",
   "field_name": "tax_id",
   "idx": 0,
   "modified": "2019-09-20 11:18:00.478671",
   "modified_by": "Administrator",
   "name": "Sales Order-tax_id-print_hide",
   "owner": "Administrator",
   "parent": null,
   "parentfield": null,
   "parenttype": null,
   "property": "print_hide",
   "property_type": "Check",
   "row_name": null,
   "value": "0"
  },
  {
   "_assign": null,
   "_comments": null,
   "_liked_by": null,
   "_user_tags": null,
   "creation": "2019-12-03 20:10:57.003070",
   "default_value": null,
   "doc_type": "Sales Order",
   "docstatus": 0,
   "doctype_or_field": "DocField",
   "field_name": "tax_id",
   "idx": 0,
   "modified": "2019-09-20 11:18:00.297697",
   "modified_by": "Administrator",
   "name": "Sales Order-tax_id-hidden",
   "owner": "Administrator",
   "parent": null,
   "parentfield": null,
   "parenttype": null,
   "property": "hidden",
   "property_type": "Check",
   "row_name": null,
   "value": "0"
  },
  {
   "_assign": null,
   "_comments": null,
   "_liked_by": null,
   "_user_tags": null,
   "creation": "2019-12-03 20:10:56.831250",
   "default_value": null,
   "doc_type": "Sales Order",
   "docstatus": 0,
   "doctype_or_field": "DocField",
   "field_name": "scan_barcode",
   "idx": 0,
   "modified": "2019-09-18 19:26:53.414718",
   "modified_by": "Administrator",
   "name": "Sales Order-scan_barcode-hidden",
   "owner": "Administrator",
   "parent": null,
   "parentfield": null,
   "parenttype": null,
   "property": "hidden",
   "property_type": "Check",
   "row_name": null,
   "value": "0"
  }
 ],
 "sync_on_migrate": 1
}